俄羅斯,消費者物價指數
2017/08,547.75
2017/07,550.50
2017/06,550.20
2017/05,546.80
2017/04,544.80
2017/03,543.10
2017/02,542.40
2017/01,541.20
2016/12,537.80
2016/11,535.70
2016/10,533.30
2016/09,531.00
2016/08,530.10
2016/07,530.10
2016/06,527.20
2016/05,525.30
2016/04,523.20
2016/03,520.90
2016/02,518.50
2016/01,515.20
2015/12,510.30
2015/11,506.40
2015/10,502.70
2015/09,499.00
2015/08,496.10
2015/07,494.40
2015/06,490.50
2015/05,489.50
2015/04,487.80
2015/03,485.60
2015/02,479.80
2015/01,469.40
2014/12,452.00
2014/11,440.50
2014/10,434.90
2014/09,431.40
2014/08,428.60
2014/07,427.50
2014/06,425.50
2014/05,422.80
2014/04,419.10
2014/03,415.30
2014/02,411.20
2014/01,408.30
2013/12,405.90
2013/11,403.90
2013/10,401.60
2013/09,399.30
2013/08,398.50
2013/07,397.90
2013/06,394.70
2013/05,393.00
2013/04,390.40
2013/03,388.50
2013/02,387.10
2013/01,384.90
2012/12,381.20
2012/11,379.20
2012/10,377.90
2012/09,376.20
2012/08,374.10
2012/07,373.80
2012/06,369.20
2012/05,366.00
2012/04,364.10
2012/03,363.00
2012/02,360.90
2012/01,359.50
2011/12,357.80
2011/11,356.20
2011/10,354.70
2011/09,353.00
2011/08,353.20
2011/07,354.00
2011/06,354.00
2011/05,353.20
2011/04,351.50
2011/03,350.00
2011/02,347.90
2011/01,345.20
2010/12,337.20
2010/11,333.60
2010/10,330.90
2010/09,329.30
2010/08,326.60
2010/07,324.80
2010/06,323.60
2010/05,322.30
2010/04,320.70
2010/03,319.80
2010/02,317.70
2010/01,315.10
2009/12,310.00
2009/11,308.70
2009/10,307.80
2009/09,307.80
2009/08,307.90
2009/07,307.90
2009/06,306.00
2009/05,304.20
2009/04,302.40
2009/03,300.30
2009/02,296.50
2009/01,291.70
2008/12,284.90
2008/11,282.90
2008/10,280.60
2008/09,278.10
2008/08,275.80
2008/07,274.90
2008/06,273.50
2008/05,270.90
2008/04,267.30
2008/03,263.50
2008/02,260.40
2008/01,257.30
2007/12,251.50
2007/11,248.70
2007/10,245.70
2007/09,241.70
2007/08,239.80
俄羅斯,失業率
2017/08,4.90
2017/07,5.10
2017/06,5.10
2017/05,5.20
2017/04,5.30
2017/03,5.40
2017/02,5.60
2017/01,5.60
2016/12,5.30
2016/11,5.40
2016/10,5.40
2016/09,5.20
2016/08,5.20
2016/07,5.30
2016/06,5.40
2016/05,5.60
2016/04,5.90
2016/03,6.00
2016/02,5.80
2016/01,5.80
2015/12,5.80
2015/11,5.80
2015/10,5.50
2015/09,5.20
2015/08,5.30
2015/07,5.30
2015/06,5.40
2015/05,5.60
2015/04,5.80
2015/03,5.90
2015/02,5.80
2015/01,5.50
2014/12,5.30
2014/11,5.20
2014/10,5.10
2014/09,4.90
2014/08,4.80
2014/07,4.90
2014/06,4.90
2014/05,4.90
2014/04,5.30
2014/03,5.40
2014/02,5.60
2014/01,5.60
2013/12,5.60
2013/11,5.40
2013/10,5.50
2013/09,5.30
2013/08,5.20
2013/07,5.30
2013/06,5.40
2013/05,5.20
2013/04,5.60
2013/03,5.70
2013/02,5.80
2013/01,6.00
2012/12,5.10
2012/11,5.20
2012/10,5.10
2012/09,5.00
2012/08,5.00
2012/07,5.20
2012/06,5.20
2012/05,5.20
2012/04,5.60
2012/03,6.30
2012/02,6.20
2012/01,6.30
2011/12,6.10
2011/11,6.30
2011/10,6.40
2011/09,6.00
2011/08,6.10
2011/07,6.50
2011/06,6.10
2011/05,6.40
2011/04,7.20
2011/03,7.10
2011/02,7.60
2011/01,7.80
2010/12,7.20
2010/11,6.70
2010/10,6.80
2010/09,6.60
2010/08,6.80
2010/07,7.00
2010/06,6.80
2010/05,7.30
2010/04,8.20
2010/03,8.60
2010/02,8.60
2010/01,9.20
2009/12,8.20
2009/11,8.20
2009/10,7.70
2009/09,7.60
2009/08,7.80
2009/07,8.10
2009/06,8.30
2009/05,8.50
2009/04,8.80
2009/03,9.20
2009/02,9.40
2009/01,8.70
2008/12,7.80
2008/11,7.00
2008/10,6.60
2008/09,6.20
2008/08,5.80
2008/07,5.70
2008/06,5.60
2008/05,5.40
2008/04,6.00
2008/03,6.50
2008/02,7.10
2008/01,6.60
2007/12,6.10
2007/11,5.70
2007/10,5.60
2007/09,5.60
2007/08,5.60
俄羅斯,工業生產指數SA
2017/08,107.70
2017/07,107.40
2017/06,107.70
2017/05,107.90
2017/04,107.30
2017/03,106.70
2017/02,106.40
2017/01,106.70
2016/12,106.00
2016/11,106.30
2016/10,106.20
2016/09,105.60
2016/08,105.70
2016/07,106.00
2016/06,105.30
2016/05,104.70
2016/04,105.00
2016/03,105.10
2016/02,105.30
2016/01,104.50
2015/12,104.60
2015/11,104.10
2015/10,104.00
2015/09,104.70
2015/08,104.10
2015/07,103.50
2015/06,103.50
2015/05,102.70
2015/04,103.30
2015/03,104.10
2015/02,102.20
2015/01,104.00
2014/12,107.10
2014/11,105.30
2014/10,106.50
2014/09,106.50
2014/08,105.70
2014/07,106.40
2014/06,106.10
2014/05,107.00
2014/04,106.80
2014/03,105.20
2014/02,105.40
2014/01,104.30
2013/12,103.90
2013/11,106.10
2013/10,104.20
2013/09,103.90
2013/08,104.40
2013/07,104.00
2013/06,104.20
2013/05,102.80
2013/04,103.10
2013/03,102.90
2013/02,101.90
2013/01,102.90
2012/12,104.30
2012/11,103.30
2012/10,103.70
2012/09,103.00
2012/08,104.20
2012/07,103.20
2012/06,102.20
2012/05,103.30
2012/04,102.10
2012/03,102.50
2012/02,104.20
2012/01,102.40
2011/12,101.70
2011/11,100.70
2011/10,100.50
2011/09,100.80
2011/08,100.30
2011/07,99.80
2011/06,100.70
2011/05,99.90
2011/04,99.50
2011/03,98.70
2011/02,97.70
2011/01,98.50
2010/12,98.10
2010/11,97.20
2010/10,97.40
2010/09,96.30
2010/08,95.10
2010/07,94.50
2010/06,94.70
2010/05,94.20
2010/04,94.00
2010/03,94.70
2010/02,92.80
2010/01,92.60
2009/12,91.80
2009/11,91.20
2009/10,91.00
2009/09,90.20
2009/08,89.30
2009/07,89.20
2009/06,87.50
2009/05,86.20
2009/04,86.10
2009/03,85.80
2009/02,86.10
2009/01,84.80
2008/12,85.40
2008/11,86.10
2008/10,97.40
2008/09,99.20
2008/08,99.10
2008/07,99.10
2008/06,99.30
2008/05,100.20
2008/04,100.10
2008/03,99.10
2008/02,100.90
2008/01,100.30
2007/12,98.80
2007/11,98.90
2007/10,98.80
2007/09,96.80
2007/08,97.90
俄羅斯,零售業營業額指數月增%
2017/08,3.80
2017/07,3.80
2017/06,1.10
2017/05,1.80
2017/04,-1.10
2017/03,7.90
2017/02,-1.70
2017/01,-24.80
2016/12,19.30
2016/11,-0.90
2016/10,0.30
2016/09,-1.90
2016/08,3.20
2016/07,4.00
2016/06,0.70
2016/05,1.10
2016/04,-1.70
2016/03,5.40
2016/02,-1.20
2016/01,-27.10
2015/12,20.50
2015/11,-1.00
2015/10,1.60
2015/09,-3.00
2015/08,3.10
2015/07,3.20
2015/06,0.40
2015/05,2.20
2015/04,-2.40
2015/03,6.80
2015/02,-3.70
2015/01,-33.30
2014/12,23.20
2014/11,0.10
2014/10,2.20
2014/09,-1.60
2014/08,3.00
2014/07,3.10
2014/06,0.60
2014/05,1.70
2014/04,-1.40
2014/03,8.60
2014/02,-0.50
2014/01,-26.80
2013/12,19.40
2013/11,0.10
2013/10,2.30
2013/09,-1.40
2013/08,2.60
2013/07,2.50
2013/06,1.70
2013/05,2.30
2013/04,0.00
2013/03,8.40
2013/02,-1.80
2013/01,-26.30
2012/12,20.10
2012/11,-0.70
2012/10,2.30
2012/09,-0.50
2012/08,2.80
2012/07,1.80
2012/06,1.30
2012/05,3.30
2012/04,0.20
2012/03,6.90
2012/02,-0.50
2012/01,-25.90
2011/12,20.10
2011/11,-1.00
2011/10,2.90
2011/09,-0.50
2011/08,3.80
2011/07,3.30
2011/06,1.20
2011/05,2.80
2011/04,0.90
2011/03,7.40
2011/02,-1.30
2011/01,-24.70
2010/12,19.10
2010/11,-0.40
2010/10,3.20
2010/09,-1.60
2010/08,1.80
2010/07,3.00
2010/06,1.20
2010/05,2.40
2010/04,0.60
2010/03,8.20
2010/02,-3.20
2010/01,-22.40
2009/12,20.30
2009/11,-1.00
2009/10,3.30
2009/09,-0.20
2009/08,1.60
2009/07,2.20
2009/06,0.40
2009/05,1.40
2009/04,-0.80
2009/03,5.80
2009/02,-4.30
2009/01,-25.40
2008/12,16.70
2008/11,-3.40
2008/10,1.60
2008/09,0.40
2008/08,3.40
2008/07,3.80
2008/06,1.20
2008/05,2.20
2008/04,1.10
2008/03,7.40
2008/02,1.10
2008/01,-25.00
2007/12,20.30
2007/11,0.60
2007/10,3.30
2007/09,0.30
2007/08,4.20
俄羅斯,零售業營業額指數年增%
2017/08,1.90
2017/07,1.20
2017/06,1.50
2017/05,1.00
2017/04,0.40
2017/03,-0.20
2017/02,-2.60
2017/01,-2.10
2016/12,-5.20
2016/11,-4.20
2016/10,-4.30
2016/09,-3.10
2016/08,-4.20
2016/07,-4.30
2016/06,-5.00
2016/05,-5.30
2016/04,-4.30
2016/03,-5.00
2016/02,-3.70
2016/01,-6.20
2015/12,-14.10
2015/11,-12.20
2015/10,-11.30
2015/09,-10.70
2015/08,-9.40
2015/07,-9.50
2015/06,-9.60
2015/05,-9.40
2015/04,-9.80
2015/03,-8.90
2015/02,-7.40
2015/01,-4.40
2014/12,5.10
2014/11,1.90
2014/10,1.70
2014/09,1.80
2014/08,1.60
2014/07,1.60
2014/06,1.10
2014/05,2.40
2014/04,3.00
2014/03,4.50
2014/02,4.30
2014/01,2.80
2013/12,3.50
2013/11,4.10
2013/10,3.30
2013/09,3.20
2013/08,4.20
2013/07,4.50
2013/06,3.80
2013/05,3.40
2013/04,4.30
2013/03,4.50
2013/02,3.10
2013/01,4.50
2012/12,5.00
2012/11,5.00
2012/10,4.70
2012/09,5.30
2012/08,5.30
2012/07,6.20
2012/06,7.70
2012/05,7.60
2012/04,7.00
2012/03,7.80
2012/02,8.30
2012/01,7.50
2011/12,9.30
2011/11,8.40
2011/10,9.10
2011/09,9.30
2011/08,8.20
2011/07,6.10
2011/06,5.80
2011/05,5.80
2011/04,5.50
2011/03,5.20
2011/02,6.00
2011/01,3.90
2010/12,6.90
2010/11,8.00
2010/10,7.30
2010/09,7.50
2010/08,9.00
2010/07,8.80
2010/06,7.80
2010/05,7.00
2010/04,5.90
2010/03,4.10
2010/02,1.90
2010/01,0.70
2009/12,-2.90
2009/11,-5.80
2009/10,-8.00
2009/09,-9.50
2009/08,-8.90
2009/07,-7.30
2009/06,-5.80
2009/05,-5.10
2009/04,-4.30
2009/03,-2.40
2009/02,-0.80
2009/01,4.70
2008/12,5.30
2008/11,8.50
2008/10,13.00
2008/09,14.80
2008/08,14.60
2008/07,15.50
2008/06,14.60
2008/05,15.20
2008/04,14.80
2008/03,16.40
2008/02,18.60
2008/01,16.80
2007/12,17.70
2007/11,16.50
2007/10,15.90
2007/09,16.80
2007/08,17.40
俄羅斯,貿易餘額(百萬美元)
2017/07,"3,972.00"
2017/06,"8,690.00"
2017/05,"8,519.00"
2017/04,"8,001.00"
2017/03,"12,514.00"
2017/02,"10,145.00"
2017/01,"11,695.00"
2016/12,"11,762.00"
2016/11,"8,968.00"
2016/10,"6,556.00"
2016/09,"7,455.00"
2016/08,"4,633.00"
2016/07,"6,238.00"
2016/06,"8,040.00"
2016/05,"7,592.00"
2016/04,"6,631.00"
2016/03,"7,815.00"
2016/02,"7,270.00"
2016/01,"7,303.00"
2015/12,"11,203.00"
2015/11,"8,950.00"
2015/10,"10,047.00"
2015/09,"9,512.00"
2015/08,"8,802.00"
2015/07,"10,559.00"
2015/06,"13,867.00"
2015/05,"15,364.00"
2015/04,"14,545.00"
2015/03,"15,823.00"
2015/02,"13,983.00"
2015/01,"15,745.00"
2014/12,"13,636.00"
2014/11,"13,609.00"
2014/10,"14,717.00"
2014/09,"12,017.00"
2014/08,"16,135.00"
2014/07,"17,032.00"
2014/06,"13,855.00"
2014/05,"17,786.00"
2014/04,"19,769.00"
2014/03,"19,572.00"
2014/02,"12,250.00"
2014/01,"18,552.00"
2013/12,"16,885.00"
2013/11,"16,876.00"
2013/10,"12,742.00"
2013/09,"15,983.00"
2013/08,"14,048.00"
2013/07,"13,322.00"
2013/06,"13,464.00"
2013/05,"14,496.00"
2013/04,"14,484.00"
2013/03,"15,986.00"
2013/02,"15,279.00"
2013/01,"17,002.00"
2012/12,"16,348.00"
2012/11,"14,681.00"
2012/10,"14,383.00"
2012/09,"15,566.00"
2012/08,"11,160.00"
2012/07,"11,455.00"
2012/06,"13,831.00"
2012/05,"17,317.00"
2012/04,"18,132.00"
2012/03,"18,253.00"
2012/02,"20,181.00"
2012/01,"20,356.00"
2011/12,"20,293.00"
2011/11,"16,672.00"
2011/10,"16,545.00"
2011/09,"16,196.00"
2011/08,"14,414.00"
2011/07,"14,580.00"
2011/06,"16,178.00"
2011/05,"16,109.00"
2011/04,"18,884.00"
2011/03,"15,667.00"
2011/02,"17,953.00"
2011/01,"13,362.00"
2010/12,"15,551.00"
2010/11,"9,962.00"
2010/10,"10,136.00"
2010/09,"10,461.00"
2010/08,"7,655.00"
2010/07,"9,915.00"
2010/06,"12,227.00"
2010/05,"12,053.00"
2010/04,"13,789.00"
2010/03,"14,556.00"
2010/02,"14,855.00"
2010/01,"15,835.00"
2009/12,"13,107.00"
2009/11,"11,958.00"
2009/10,"11,753.00"
2009/09,"11,802.00"
2009/08,"11,987.00"
2009/07,"10,953.00"
2009/06,"8,904.00"
2009/05,"8,044.00"
2009/04,"4,690.00"
2009/03,"7,237.00"
2009/02,"4,209.00"
2009/01,"8,588.00"
2008/12,"6,434.00"
2008/11,"8,277.00"
2008/10,"11,672.00"
2008/09,"15,744.00"
2008/08,"17,822.00"
2008/07,"17,860.00"
2008/06,"17,713.00"
2008/05,"18,192.00"
2008/04,"15,314.00"
2008/03,"16,169.00"
2008/02,"14,118.00"
2008/01,"18,312.00"
2007/12,"12,841.00"
2007/11,"12,587.00"
2007/10,"12,212.00"
2007/09,"8,987.00"
2007/08,"10,323.00"
俄羅斯,綜合採購經理人指數
2017/08,54.20
2017/07,53.40
2017/06,54.80
2017/05,56.00
2017/04,55.30
2017/03,56.30
2017/02,55.40
2017/01,58.30
2016/12,56.60
2016/11,55.80
2016/10,53.70
2016/09,53.10
2016/08,52.90
2016/07,53.50
2016/06,53.50
2016/05,51.20
2016/04,51.30
2016/03,50.80
2016/02,50.60
2016/01,48.40
2015/12,47.80
2015/11,50.50
2015/10,49.00
2015/09,50.90
2015/08,49.30
2015/07,50.90
2015/06,49.50
2015/05,51.60
2015/04,50.80
2015/03,46.80
2015/02,44.70
2015/01,45.60
2014/12,47.20
2014/11,47.60
2014/10,49.10
2014/09,50.90
2014/08,51.10
2014/07,51.30
2014/06,50.10
2014/05,47.10
2014/04,47.60
2014/03,47.80
2014/02,50.20
2014/01,49.60
2013/12,52.50
2013/11,52.20
2013/10,53.30
2013/09,51.20
2013/08,51.40
2013/07,48.70
2013/06,50.10
2013/05,51.00
2013/04,52.40
2013/03,53.40
2013/02,54.90
2013/01,54.80
2012/12,54.10
2012/11,56.20
2012/10,56.60
2012/09,54.30
2012/08,53.00
2012/07,52.60
2012/06,52.60
2012/05,54.50
2012/04,53.40
2012/03,53.60
2012/02,53.70
2012/01,54.40
2011/12,53.50
2011/11,54.60
2011/10,52.50
2011/09,52.30
2011/08,52.60
2011/07,54.60
2011/06,53.80
2011/05,55.40
2011/04,55.40
2011/03,55.10
2011/02,55.20
2011/01,54.60
2010/12,55.80
2010/11,53.60
2010/10,54.70
2010/09,52.30
2010/08,49.90
2010/07,54.50
2010/06,56.20
2010/05,55.40
2010/04,56.60
2010/03,53.70
2010/02,51.60
2010/01,52.00
2009/12,52.40
2009/11,52.80
2009/10,54.20
俄羅斯,服務業採購經理人指數
2017/08,54.20
2017/07,52.60
2017/06,55.50
2017/05,56.30
2017/04,56.10
2017/03,56.60
2017/02,55.50
2017/01,58.40
2016/12,56.50
2016/11,54.70
2016/10,52.70
2016/09,53.00
2016/08,53.50
2016/07,55.00
2016/06,53.80
2016/05,51.80
2016/04,54.20
2016/03,52.00
2016/02,50.90
2016/01,47.10
2015/12,47.80
2015/11,49.80
2015/10,47.80
2015/09,51.30
2015/08,49.10
2015/07,51.60
2015/06,49.50
2015/05,52.80
2015/04,50.70
2015/03,46.10
2015/02,41.30
2015/01,43.90
2014/12,45.80
2014/11,44.50
2014/10,47.40
2014/09,50.50
2014/08,50.30
2014/07,49.70
2014/06,49.80
2014/05,46.10
2014/04,46.80
2014/03,47.70
2014/02,50.80
2014/01,50.20
2013/12,53.60
2013/11,52.90
2013/10,52.50
2013/09,51.50
2013/08,51.80
2013/07,48.70
2013/06,48.80
2013/05,51.40
2013/04,53.00
2013/03,54.60
2013/02,56.10
2013/01,55.70
2012/12,56.10
2012/11,57.10
2012/10,57.30
2012/09,54.50
2012/08,52.60
2012/07,52.00
2012/06,53.20
2012/05,54.90
2012/04,52.60
2012/03,54.40
2012/02,55.30
2012/01,56.50
2011/12,53.80
2011/11,54.80
2011/10,53.50
2011/09,53.30
2011/08,53.20
2011/07,56.90
2011/06,55.10
2011/05,57.60
2011/04,55.80
2011/03,53.30
2011/02,53.40
2011/01,54.20
2010/12,56.40
2010/11,54.10
2010/10,55.60
2010/09,52.30
2010/08,47.00
2010/07,54.50
2010/06,55.40
2010/05,55.90
2010/04,56.90
2010/03,53.60
2010/02,51.00
2010/01,52.00
2009/12,53.50
2009/11,53.50
2009/10,54.30
俄羅斯,製造業採購經理人指數
2017/08,51.60
2017/07,52.70
2017/06,50.30
2017/05,52.40
2017/04,50.80
2017/03,52.40
2017/02,52.50
2017/01,54.70
2016/12,53.70
2016/11,53.60
2016/10,52.40
2016/09,51.10
2016/08,50.80
2016/07,49.50
2016/06,51.50
2016/05,49.60
2016/04,48.00
2016/03,48.30
2016/02,49.30
2016/01,49.80
2015/12,48.70
2015/11,50.10
2015/10,50.20
2015/09,49.10
2015/08,47.90
2015/07,48.30
2015/06,48.70
2015/05,47.60
2015/04,48.90
2015/03,48.10
2015/02,49.70
2015/01,47.60
2014/12,48.90
2014/11,51.70
2014/10,50.30
2014/09,50.40
2014/08,51.00
2014/07,51.00
2014/06,49.10
2014/05,48.90
2014/04,48.50
2014/03,48.30
2014/02,48.50
2014/01,48.00
2013/12,48.80
2013/11,49.40
2013/10,51.80
2013/09,49.40
2013/08,49.40
2013/07,49.20
2013/06,51.70
2013/05,50.40
2013/04,50.60
2013/03,50.80
2013/02,52.00
2013/01,52.00
2012/12,50.00
2012/11,52.20
2012/10,52.90
2012/09,52.40
2012/08,51.00
2012/07,52.00
2012/06,51.00
2012/05,53.20
2012/04,52.90
2012/03,50.80
2012/02,50.70
2012/01,50.80
2011/12,51.60
2011/11,52.60
2011/10,50.40
2011/09,50.00
2011/08,49.90
2011/07,49.80
2011/06,50.60
2011/05,50.70
2011/04,52.10
2011/03,55.60
2011/02,55.20
2011/01,53.50
2010/12,53.50
2010/11,50.00
2010/10,51.80
2010/09,51.20
2010/08,52.90
2010/07,52.70
2010/06,52.60
2010/05,52.00
2010/04,52.10
2010/03,50.20
2010/02,50.20
2010/01,50.80
2009/12,48.80
2009/11,49.10
2009/10,49.60
俄羅斯,國內生產總值年增%
2017/06,39.86
2017/03,39.43
2016/12,0.30
2016/09,-0.35
2016/06,-0.48
2016/03,-0.43
2015/12,-3.23
2015/09,-2.66
2015/06,-3.41
2015/03,-1.90
2014/12,0.33
2014/09,0.88
2014/06,1.30
2014/03,0.47
2013/12,2.47
2013/09,1.63
2013/06,1.68
2013/03,1.26
2012/12,1.91
2012/09,3.27
2012/06,4.44
2012/03,5.44
2011/12,52.77
2011/09,51.53
2011/06,51.79
2011/03,50.49
2010/12,4.85
2010/09,3.83
2010/06,5.00
2010/03,4.07
2009/12,-2.59
2009/09,-8.62
2009/06,-11.15
2009/03,-9.20
2008/12,-1.32
2008/09,6.41
2008/06,7.90
2008/03,9.18
2007/12,9.19
2007/09,8.17
