台灣,出口貿易年增%,,,,,,
2017/08,12.70,,,,,,
2017/07,12.51,,,,,,
2017/06,12.91,,,,,,
2017/05,8.37,,,,,,
2017/04,9.34,,,,,,
2017/03,13.13,,,,,,
2017/02,27.57,,,,,,
2017/01,7.02,,,,,,
2016/12,13.96,,,,,,
2016/11,12.06,,,,,,
2016/10,9.35,,,,,,
2016/09,-1.85,,,,,,
2016/08,0.89,,,,,,
2016/07,1.09,,,,,,
2016/06,-2.24,,,,,,
2016/05,-9.55,,,,,,
2016/04,-6.60,,,,,,
2016/03,-11.41,,,,,,
2016/02,-11.99,,,,,,
2016/01,-12.96,,,,,,
2015/12,-13.79,,,,,,
2015/11,-17.16,,,,,,
2015/10,-10.67,,,,,,
2015/09,-14.67,,,,,,
2015/08,-14.60,,,,,,
2015/07,-12.69,,,,,,
2015/06,-14.82,,,,,,
2015/05,-4.25,,,,,,
2015/04,-12.34,,,,,,
2015/03,-9.40,,,,,,
2015/02,-6.61,,,,,,
2015/01,2.87,,,,,,
2014/12,-2.46,,,,,,
2014/11,3.76,,,,,,
2014/10,0.67,,,,,,
2014/09,4.66,,,,,,
2014/08,9.78,,,,,,
2014/07,5.73,,,,,,
2014/06,1.58,,,,,,
2014/05,0.10,,,,,,
2014/04,6.24,,,,,,
2014/03,1.95,,,,,,
2014/02,8.18,,,,,,
2014/01,-4.98,,,,,,
2013/12,1.07,,,,,,
2013/11,4.06,,,,,,
2013/10,0.90,,,,,,
2013/09,-7.45,,,,,,
2013/08,3.73,,,,,,
2013/07,1.10,,,,,,
2013/06,9.01,,,,,,
2013/05,2.47,,,,,,
2013/04,-1.46,,,,,,
2013/03,3.66,,,,,,
2013/02,-16.20,,,,,,
2013/01,21.94,,,,,,
2012/12,8.79,,,,,,
2012/11,0.97,,,,,,
2012/10,-1.91,,,,,,
2012/09,10.92,,,,,,
2012/08,-4.16,,,,,,
2012/07,-10.52,,,,,,
2012/06,-2.92,,,,,,
2012/05,-6.21,,,,,,
2012/04,-6.10,,,,,,
2012/03,-3.04,,,,,,
2012/02,10.63,,,,,,
2012/01,-16.69,,,,,,
2011/12,0.64,,,,,,
2011/11,1.39,,,,,,
2011/10,11.90,,,,,,
2011/09,10.27,,,,,,
2011/08,7.45,,,,,,
2011/07,18.17,,,,,,
2011/06,10.97,,,,,,
2011/05,9.72,,,,,,
2011/04,24.82,,,,,,
2011/03,17.05,,,,,,
2011/02,27.84,,,,,,
2011/01,16.96,,,,,,
2010/12,20.12,,,,,,
2010/11,22.39,,,,,,
2010/10,22.78,,,,,,
2010/09,17.93,,,,,,
2010/08,27.16,,,,,,
2010/07,38.53,,,,,,
2010/06,34.25,,,,,,
2010/05,57.58,,,,,,
2010/04,47.73,,,,,,
2010/03,50.25,,,,,,
2010/02,31.78,,,,,,
2010/01,75.66,,,,,,
2009/12,46.45,,,,,,
2009/11,19.07,,,,,,
2009/10,-4.82,,,,,,
2009/09,-12.63,,,,,,
2009/08,-24.64,,,,,,
2009/07,-24.59,,,,,,
2009/06,-30.15,,,,,,
2009/05,-31.30,,,,,,
2009/04,-34.33,,,,,,
2009/03,-35.79,,,,,,
2009/02,-28.17,,,,,,
2009/01,-44.02,,,,,,
2008/12,-41.81,,,,,,
2008/11,-23.29,,,,,,
2008/10,-8.26,,,,,,
2008/09,-1.27,,,,,,
2008/08,18.61,,,,,,
2008/07,8.00,,,,,,
2008/06,21.11,,,,,,
2008/05,20.57,,,,,,
2008/04,14.13,,,,,,
2008/03,22.75,,,,,,
2008/02,18.42,,,,,,
2008/01,11.54,,,,,,
2007/12,19.44,,,,,,
2007/11,12.10,,,,,,
2007/10,14.50,,,,,,
2007/09,10.25,,,,,,
2007/08,9.97,,,,,,
台灣,進口貿易年增%,,,,,,
2017/08,6.90,,,,,,
2017/07,6.49,,,,,,
2017/06,3.64,,,,,,
2017/05,10.18,,,,,,
2017/04,23.46,,,,,,
2017/03,19.62,,,,,,
2017/02,42.12,,,,,,
2017/01,8.57,,,,,,
2016/12,13.23,,,,,,
2016/11,2.75,,,,,,
2016/10,19.21,,,,,,
2016/09,0.67,,,,,,
2016/08,-0.97,,,,,,
2016/07,-0.63,,,,,,
2016/06,-10.06,,,,,,
2016/05,-3.42,,,,,,
2016/04,-9.62,,,,,,
2016/03,-17.10,,,,,,
2016/02,-13.40,,,,,,
2016/01,-11.66,,,,,,
2015/12,-14.93,,,,,,
2015/11,-11.45,,,,,,
2015/10,-18.79,,,,,,
2015/09,-22.91,,,,,,
2015/08,-15.13,,,,,,
2015/07,-17.69,,,,,,
2015/06,-16.24,,,,,,
2015/05,-5.78,,,,,,
2015/04,-22.13,,,,,,
2015/03,-17.58,,,,,,
2015/02,-22.68,,,,,,
2015/01,-3.39,,,,,,
2014/12,-12.48,,,,,,
2014/11,5.44,,,,,,
2014/10,-1.01,,,,,,
2014/09,0.08,,,,,,
2014/08,14.12,,,,,,
2014/07,8.73,,,,,,
2014/06,7.26,,,,,,
2014/05,-3.07,,,,,,
2014/04,4.87,,,,,,
2014/03,6.60,,,,,,
2014/02,5.24,,,,,,
2014/01,-15.28,,,,,,
2013/12,10.66,,,,,,
2013/11,-0.10,,,,,,
2013/10,-2.56,,,,,,
2013/09,-0.40,,,,,,
2013/08,-1.13,,,,,,
2013/07,-8.42,,,,,,
2013/06,7.27,,,,,,
2013/05,-6.37,,,,,,
2013/04,-6.88,,,,,,
2013/03,0.89,,,,,,
2013/02,-8.67,,,,,,
2013/01,22.11,,,,,,
2012/12,1.27,,,,,,
2012/11,0.13,,,,,,
2012/10,-1.00,,,,,,
2012/09,1.16,,,,,,
2012/08,-7.69,,,,,,
2012/07,-1.61,,,,,,
2012/06,-8.44,,,,,,
2012/05,-10.63,,,,,,
2012/04,1.74,,,,,,
2012/03,-5.81,,,,,,
2012/02,1.04,,,,,,
2012/01,-12.58,,,,,,
2011/12,-2.53,,,,,,
2011/11,-9.80,,,,,,
2011/10,11.70,,,,,,
2011/09,10.90,,,,,,
2011/08,6.29,,,,,,
2011/07,14.82,,,,,,
2011/06,12.53,,,,,,
2011/05,19.20,,,,,,
2011/04,24.61,,,,,,
2011/03,17.17,,,,,,
2011/02,30.11,,,,,,
2011/01,23.25,,,,,,
2010/12,21.71,,,,,,
2010/11,33.60,,,,,,
2010/10,28.19,,,,,,
2010/09,25.08,,,,,,
2010/08,28.17,,,,,,
2010/07,41.76,,,,,,
2010/06,39.80,,,,,,
2010/05,72.00,,,,,,
2010/04,54.42,,,,,,
2010/03,79.87,,,,,,
2010/02,45.19,,,,,,
2010/01,115.14,,,,,,
2009/12,55.29,,,,,,
2009/11,17.81,,,,,,
2009/10,-6.58,,,,,,
2009/09,-20.94,,,,,,
2009/08,-32.05,,,,,,
2009/07,-33.84,,,,,,
2009/06,-33.25,,,,,,
2009/05,-38.88,,,,,,
2009/04,-41.08,,,,,,
2009/03,-49.40,,,,,,
2009/02,-32.27,,,,,,
2009/01,-56.55,,,,,,
2008/12,-44.36,,,,,,
2008/11,-13.87,,,,,,
2008/10,-7.61,,,,,,
2008/09,9.82,,,,,,
2008/08,39.01,,,,,,
2008/07,11.80,,,,,,
2008/06,22.09,,,,,,
2008/05,17.20,,,,,,
2008/04,17.85,,,,,,
2008/03,36.95,,,,,,
2008/02,25.76,,,,,,
2008/01,14.39,,,,,,
2007/12,27.06,,,,,,
2007/11,2.74,,,,,,
2007/10,9.68,,,,,,
2007/09,10.65,,,,,,
2007/08,-0.37,,,,,,
台灣,外匯存底(10億美元),,,,,,
2017/08,446.43,,,,,,
2017/07,444.45,,,,,,
2017/06,441.94,,,,,,
2017/05,440.25,,,,,,
2017/04,438.43,,,,,,
2017/03,437.53,,,,,,
2017/02,437.66,,,,,,
2017/01,436.59,,,,,,
2016/12,434.20,,,,,,
2016/11,434.35,,,,,,
2016/10,435.26,,,,,,
2016/09,436.73,,,,,,
2016/08,435.86,,,,,,
2016/07,434.09,,,,,,
2016/06,433.55,,,,,,
2016/05,433.43,,,,,,
2016/04,433.18,,,,,,
2016/03,431.60,,,,,,
2016/02,428.82,,,,,,
2016/01,425.98,,,,,,
2015/12,426.03,,,,,,
2015/11,424.61,,,,,,
2015/10,426.77,,,,,,
2015/09,426.33,,,,,,
2015/08,424.79,,,,,,
2015/07,421.96,,,,,,
2015/06,421.41,,,,,,
2015/05,418.96,,,,,,
2015/04,418.17,,,,,,
2015/03,414.69,,,,,,
2015/02,417.83,,,,,,
2015/01,415.90,,,,,,
2014/12,418.98,,,,,,
2014/11,421.47,,,,,,
2014/10,421.48,,,,,,
2014/09,420.70,,,,,,
2014/08,423.07,,,,,,
2014/07,423.66,,,,,,
2014/06,423.45,,,,,,
2014/05,421.65,,,,,,
2014/04,421.50,,,,,,
2014/03,419.20,,,,,,
2014/02,417.98,,,,,,
2014/01,416.94,,,,,,
2013/12,416.81,,,,,,
2013/11,415.56,,,,,,
2013/10,415.60,,,,,,
2013/09,412.61,,,,,,
2013/08,409.39,,,,,,
2013/07,409.12,,,,,,
2013/06,406.61,,,,,,
2013/05,406.62,,,,,,
2013/04,405.19,,,,,,
2013/03,401.89,,,,,,
2013/02,404.08,,,,,,
2013/01,406.56,,,,,,
2012/12,403.17,,,,,,
2012/11,400.96,,,,,,
2012/10,399.22,,,,,,
2012/09,397.95,,,,,,
2012/08,394.23,,,,,,
2012/07,391.11,,,,,,
2012/06,391.24,,,,,,
2012/05,389.28,,,,,,
2012/04,395.07,,,,,,
2012/03,393.87,,,,,,
2012/02,394.43,,,,,,
2012/01,390.30,,,,,,
2011/12,385.55,,,,,,
2011/11,387.97,,,,,,
2011/10,393.33,,,,,,
2011/09,389.17,,,,,,
2011/08,400.29,,,,,,
2011/07,400.77,,,,,,
2011/06,400.33,,,,,,
2011/05,398.68,,,,,,
2011/04,399.54,,,,,,
2011/03,392.63,,,,,,
2011/02,390.69,,,,,,
2011/01,387.11,,,,,,
2010/12,382.01,,,,,,
2010/11,379.26,,,,,,
2010/10,383.84,,,,,,
2010/09,380.50,,,,,,
2010/08,372.06,,,,,,
2010/07,370.11,,,,,,
2010/06,362.38,,,,,,
2010/05,360.12,,,,,,
2010/04,357.56,,,,,,
2010/03,355.04,,,,,,
2010/02,352.73,,,,,,
2010/01,350.71,,,,,,
2009/12,348.20,,,,,,
2009/11,347.19,,,,,,
2009/10,341.22,,,,,,
2009/09,332.24,,,,,,
2009/08,325.42,,,,,,
2009/07,321.09,,,,,,
2009/06,317.56,,,,,,
2009/05,312.64,,,,,,
2009/04,304.66,,,,,,
2009/03,300.12,,,,,,
2009/02,294.19,,,,,,
2009/01,292.68,,,,,,
2008/12,291.71,,,,,,
2008/11,280.68,,,,,,
2008/10,278.15,,,,,,
2008/09,281.13,,,,,,
2008/08,282.09,,,,,,
2008/07,290.90,,,,,,
2008/06,291.40,,,,,,
2008/05,290.07,,,,,,
2008/04,289.38,,,,,,
2008/03,286.86,,,,,,
2008/02,277.84,,,,,,
2008/01,272.82,,,,,,
2007/12,270.31,,,,,,
2007/11,270.09,,,,,,
2007/10,265.92,,,,,,
2007/09,262.94,,,,,,
2007/08,261.37,,,,,,
台灣,領先指標,,,,,,
2017/07,109.91,,,,,,
2017/06,109.57,,,,,,
2017/05,109.32,,,,,,
2017/04,109.25,,,,,,
2017/03,109.33,,,,,,
2017/02,109.48,,,,,,
2017/01,109.62,,,,,,
2016/12,109.65,,,,,,
2016/11,109.57,,,,,,
2016/10,109.37,,,,,,
2016/09,109.02,,,,,,
2016/08,108.46,,,,,,
2016/07,107.66,,,,,,
2016/06,106.72,,,,,,
2016/05,105.78,,,,,,
2016/04,105.03,,,,,,
2016/03,104.62,,,,,,
2016/02,104.51,,,,,,
2016/01,104.72,,,,,,
2015/12,105.11,,,,,,
2015/11,105.51,,,,,,
2015/10,105.83,,,,,,
2015/09,106.02,,,,,,
2015/08,106.11,,,,,,
2015/07,106.16,,,,,,
2015/06,106.24,,,,,,
2015/05,106.30,,,,,,
2015/04,106.39,,,,,,
2015/03,106.55,,,,,,
2015/02,106.78,,,,,,
2015/01,106.99,,,,,,
2014/12,107.16,,,,,,
2014/11,107.28,,,,,,
2014/10,107.35,,,,,,
2014/09,107.39,,,,,,
2014/08,107.37,,,,,,
2014/07,107.34,,,,,,
2014/06,107.30,,,,,,
2014/05,107.26,,,,,,
2014/04,107.19,,,,,,
2014/03,107.02,,,,,,
2014/02,106.76,,,,,,
2014/01,106.39,,,,,,
2013/12,105.98,,,,,,
2013/11,105.51,,,,,,
2013/10,105.05,,,,,,
2013/09,104.61,,,,,,
2013/08,104.17,,,,,,
2013/07,103.76,,,,,,
2013/06,103.40,,,,,,
2013/05,103.09,,,,,,
2013/04,102.74,,,,,,
2013/03,102.36,,,,,,
2013/02,101.98,,,,,,
2013/01,101.52,,,,,,
2012/12,100.97,,,,,,
2012/11,100.37,,,,,,
2012/10,99.80,,,,,,
2012/09,99.34,,,,,,
2012/08,99.01,,,,,,
2012/07,98.82,,,,,,
2012/06,98.72,,,,,,
2012/05,98.62,,,,,,
2012/04,98.47,,,,,,
2012/03,98.25,,,,,,
2012/02,97.93,,,,,,
2012/01,97.58,,,,,,
2011/12,127.40,,,,,,
2011/11,126.50,,,,,,
2011/10,125.80,,,,,,
2011/09,125.30,,,,,,
2011/08,125.10,,,,,,
2011/07,125.10,,,,,,
2011/06,125.30,,,,,,
2011/05,125.60,,,,,,
2011/04,125.90,,,,,,
2011/03,126.00,,,,,,
2011/02,126.00,,,,,,
2011/01,125.90,,,,,,
2010/12,125.70,,,,,,
2010/11,125.50,,,,,,
2010/10,125.20,,,,,,
2010/09,124.80,,,,,,
2010/08,124.50,,,,,,
2010/07,124.20,,,,,,
2010/06,123.90,,,,,,
2010/05,123.50,,,,,,
2010/04,122.90,,,,,,
2010/03,122.10,,,,,,
2010/02,120.90,,,,,,
2010/01,119.40,,,,,,
2009/12,117.70,,,,,,
2009/11,115.70,,,,,,
2009/10,113.50,,,,,,
2009/09,110.90,,,,,,
2009/08,108.00,,,,,,
2009/07,104.60,,,,,,
2009/06,100.90,,,,,,
2009/05,97.10,,,,,,
2009/04,93.60,,,,,,
2009/03,90.50,,,,,,
2009/02,88.20,,,,,,
2009/01,87.20,,,,,,
2008/12,87.60,,,,,,
2008/11,89.30,,,,,,
2008/10,91.80,,,,,,
2008/09,94.60,,,,,,
2008/08,97.50,,,,,,
2008/07,100.10,,,,,,
2008/06,102.50,,,,,,
2008/05,104.40,,,,,,
2008/04,105.90,,,,,,
2008/03,107.10,,,,,,
2008/02,107.90,,,,,,
2008/01,108.60,,,,,,
2007/12,109.00,,,,,,
2007/11,109.10,,,,,,
2007/10,109.00,,,,,,
2007/09,108.70,,,,,,
2007/08,108.30,,,,,,
台灣,同時指標,,,,,,
2017/07,108.93,,,,,,
2017/06,108.89,,,,,,
2017/05,108.92,,,,,,
2017/04,109.20,,,,,,
2017/03,109.71,,,,,,
2017/02,110.30,,,,,,
2017/01,110.82,,,,,,
2016/12,110.98,,,,,,
2016/11,110.68,,,,,,
2016/10,110.00,,,,,,
2016/09,109.08,,,,,,
2016/08,108.07,,,,,,
2016/07,106.99,,,,,,
2016/06,105.90,,,,,,
2016/05,104.88,,,,,,
2016/04,103.99,,,,,,
2016/03,103.31,,,,,,
2016/02,102.93,,,,,,
2016/01,102.86,,,,,,
2015/12,103.02,,,,,,
2015/11,103.27,,,,,,
2015/10,103.51,,,,,,
2015/09,103.72,,,,,,
2015/08,104.02,,,,,,
2015/07,104.46,,,,,,
2015/06,105.00,,,,,,
2015/05,105.63,,,,,,
2015/04,106.33,,,,,,
2015/03,107.01,,,,,,
2015/02,107.58,,,,,,
2015/01,107.97,,,,,,
2014/12,108.21,,,,,,
2014/11,108.33,,,,,,
2014/10,108.32,,,,,,
2014/09,108.23,,,,,,
2014/08,108.03,,,,,,
2014/07,107.71,,,,,,
2014/06,107.32,,,,,,
2014/05,106.84,,,,,,
2014/04,106.29,,,,,,
2014/03,105.66,,,,,,
2014/02,105.06,,,,,,
2014/01,104.45,,,,,,
2013/12,103.82,,,,,,
2013/11,103.20,,,,,,
2013/10,102.69,,,,,,
2013/09,102.35,,,,,,
2013/08,102.19,,,,,,
2013/07,102.17,,,,,,
2013/06,102.20,,,,,,
2013/05,102.08,,,,,,
2013/04,101.81,,,,,,
2013/03,101.51,,,,,,
2013/02,101.20,,,,,,
2013/01,100.87,,,,,,
2012/12,100.52,,,,,,
2012/11,100.36,,,,,,
2012/10,100.34,,,,,,
2012/09,100.39,,,,,,
2012/08,100.48,,,,,,
2012/07,100.53,,,,,,
2012/06,100.52,,,,,,
2012/05,100.44,,,,,,
2012/04,100.11,,,,,,
2012/03,99.57,,,,,,
2012/02,98.86,,,,,,
2012/01,98.31,,,,,,
2011/12,127.40,,,,,,
2011/11,127.60,,,,,,
2011/10,128.10,,,,,,
2011/09,128.70,,,,,,
2011/08,129.40,,,,,,
2011/07,130.10,,,,,,
2011/06,130.70,,,,,,
2011/05,131.10,,,,,,
2011/04,131.40,,,,,,
2011/03,131.50,,,,,,
2011/02,131.40,,,,,,
2011/01,130.90,,,,,,
2010/12,130.00,,,,,,
2010/11,128.80,,,,,,
2010/10,127.40,,,,,,
2010/09,125.90,,,,,,
2010/08,124.50,,,,,,
2010/07,123.10,,,,,,
2010/06,121.70,,,,,,
2010/05,120.40,,,,,,
2010/04,118.90,,,,,,
2010/03,117.40,,,,,,
2010/02,115.80,,,,,,
2010/01,114.00,,,,,,
2009/12,112.10,,,,,,
2009/11,110.00,,,,,,
2009/10,107.70,,,,,,
2009/09,105.10,,,,,,
2009/08,102.00,,,,,,
2009/07,98.60,,,,,,
2009/06,94.90,,,,,,
2009/05,91.00,,,,,,
2009/04,87.50,,,,,,
2009/03,84.70,,,,,,
2009/02,83.20,,,,,,
2009/01,83.30,,,,,,
2008/12,85.70,,,,,,
2008/11,90.00,,,,,,
2008/10,95.40,,,,,,
2008/09,100.80,,,,,,
2008/08,105.30,,,,,,
2008/07,108.90,,,,,,
2008/06,111.60,,,,,,
2008/05,113.30,,,,,,
2008/04,114.20,,,,,,
2008/03,114.50,,,,,,
2008/02,114.40,,,,,,
2008/01,114.00,,,,,,
2007/12,113.20,,,,,,
2007/11,112.40,,,,,,
2007/10,111.70,,,,,,
2007/09,110.90,,,,,,
2007/08,110.10,,,,,,
台灣,官方製造業採購經理人指數,,,,,,
2017/08,58.80,,,,,,
2017/07,59.00,,,,,,
2017/06,57.60,,,,,,
2017/05,58.70,,,,,,
2017/04,61.00,,,,,,
2017/03,65.20,,,,,,
2017/02,55.80,,,,,,
2017/01,53.40,,,,,,
2016/12,55.90,,,,,,
2016/11,57.30,,,,,,
2016/10,54.50,,,,,,
2016/09,56.50,,,,,,
2016/08,55.00,,,,,,
2016/07,54.20,,,,,,
2016/06,53.30,,,,,,
2016/05,54.90,,,,,,
2016/04,54.60,,,,,,
2016/03,54.90,,,,,,
2016/02,41.40,,,,,,
2016/01,51.30,,,,,,
2015/12,46.60,,,,,,
2015/11,45.10,,,,,,
2015/10,46.00,,,,,,
2015/09,46.10,,,,,,
2015/08,45.00,,,,,,
2015/07,48.60,,,,,,
2015/06,50.80,,,,,,
2015/05,51.10,,,,,,
2015/04,54.70,,,,,,
2015/03,59.10,,,,,,
2015/02,47.80,,,,,,
2015/01,53.50,,,,,,
2014/12,50.10,,,,,,
2014/11,49.20,,,,,,
2014/10,51.50,,,,,,
2014/09,53.30,,,,,,
2014/08,55.40,,,,,,
2014/07,58.50,,,,,,
2014/06,58.20,,,,,,
2014/05,58.60,,,,,,
2014/04,60.20,,,,,,
2014/03,60.60,,,,,,
2014/02,50.30,,,,,,
2014/01,54.10,,,,,,
2013/12,53.60,,,,,,
2013/11,52.00,,,,,,
2013/10,51.60,,,,,,
2013/09,52.60,,,,,,
2013/08,52.60,,,,,,
2013/07,52.60,,,,,,
2013/06,53.60,,,,,,
2013/05,55.30,,,,,,
2013/04,56.80,,,,,,
2013/03,62.40,,,,,,
2013/02,50.00,,,,,,
2013/01,57.70,,,,,,
2012/12,51.30,,,,,,
2012/11,49.60,,,,,,
2012/10,46.70,,,,,,
2012/09,47.70,,,,,,
2012/08,47.60,,,,,,
2012/07,47.30,,,,,,
台灣,官方非製造業採購經理人指數,,,,,,
2017/08,55.20,,,,,,
2017/07,54.80,,,,,,
2017/06,53.00,,,,,,
2017/05,55.40,,,,,,
2017/04,56.30,,,,,,
2017/03,55.10,,,,,,
2017/02,48.50,,,,,,
2017/01,54.10,,,,,,
2016/12,51.30,,,,,,
2016/11,49.80,,,,,,
2016/10,49.40,,,,,,
2016/09,51.00,,,,,,
2016/08,52.50,,,,,,
2016/07,54.40,,,,,,
2016/06,51.70,,,,,,
2016/05,47.90,,,,,,
2016/04,48.80,,,,,,
2016/03,50.50,,,,,,
2016/02,42.90,,,,,,
2016/01,48.80,,,,,,
2015/12,50.00,,,,,,
2015/11,48.70,,,,,,
2015/10,50.80,,,,,,
2015/09,45.30,,,,,,
2015/08,47.50,,,,,,
2015/07,52.10,,,,,,
2015/06,50.50,,,,,,
2015/05,54.80,,,,,,
2015/04,57.30,,,,,,
2015/03,52.80,,,,,,
2015/02,50.80,,,,,,
2015/01,53.90,,,,,,
2014/12,53.60,,,,,,
2014/11,52.80,,,,,,
2014/10,55.90,,,,,,
2014/09,55.20,,,,,,
2014/08,54.60,,,,,,
台灣,消費者信心指數,,,,,,
2017/08,79.95,,,,,,
2017/07,78.19,,,,,,
2017/06,77.76,,,,,,
2017/05,78.11,,,,,,
2017/04,78.20,,,,,,
2017/03,78.12,,,,,,
2017/02,77.63,,,,,,
2017/01,74.35,,,,,,
2016/12,77.22,,,,,,
2016/11,77.71,,,,,,
2016/10,78.95,,,,,,
2016/09,78.66,,,,,,
2016/08,79.56,,,,,,
2016/07,80.18,,,,,,
2016/06,78.36,,,,,,
2016/05,79.82,,,,,,
2016/04,80.37,,,,,,
2016/03,81.34,,,,,,
2016/02,82.09,,,,,,
2016/01,80.89,,,,,,
2015/12,81.61,,,,,,
2015/11,84.20,,,,,,
2015/10,84.60,,,,,,
2015/09,85.32,,,,,,
2015/08,86.15,,,,,,
2015/07,89.58,,,,,,
2015/06,90.58,,,,,,
2015/05,91.64,,,,,,
2015/04,92.93,,,,,,
2015/03,91.13,,,,,,
2015/02,89.44,,,,,,
2015/01,88.23,,,,,,
2014/12,86.36,,,,,,
2014/11,83.41,,,,,,
2014/10,82.98,,,,,,
2014/09,83.16,,,,,,
2014/08,83.06,,,,,,
2014/07,88.17,,,,,,
2014/06,87.58,,,,,,
2014/05,85.59,,,,,,
2014/04,83.73,,,,,,
2014/03,80.96,,,,,,
2014/02,82.93,,,,,,
2014/01,80.83,,,,,,
2013/12,78.22,,,,,,
2013/11,78.43,,,,,,
2013/10,78.47,,,,,,
2013/09,76.50,,,,,,
2013/08,75.33,,,,,,
2013/07,76.08,,,,,,
2013/06,75.08,,,,,,
2013/05,78.25,,,,,,
2013/04,77.29,,,,,,
2013/03,76.01,,,,,,
2013/02,75.24,,,,,,
2013/01,72.82,,,,,,
2012/12,71.06,,,,,,
2012/11,72.12,,,,,,
2012/10,72.73,,,,,,
2012/09,74.35,,,,,,
2012/08,75.18,,,,,,
2012/07,75.08,,,,,,
2012/06,76.36,,,,,,
2012/05,77.61,,,,,,
2012/04,78.92,,,,,,
2012/03,81.26,,,,,,
2012/02,79.73,,,,,,
2012/01,78.55,,,,,,
2011/12,77.58,,,,,,
2011/11,79.88,,,,,,
2011/10,84.04,,,,,,
2011/09,85.58,,,,,,
2011/08,86.89,,,,,,
2011/07,86.84,,,,,,
2011/06,85.28,,,,,,
2011/05,85.40,,,,,,
2011/04,85.78,,,,,,
2011/03,83.66,,,,,,
2011/02,85.89,,,,,,
2011/01,86.78,,,,,,
2010/12,83.16,,,,,,
2010/11,81.66,,,,,,
2010/10,80.19,,,,,,
2010/09,80.14,,,,,,
2010/08,79.69,,,,,,
2010/07,78.64,,,,,,
2010/06,77.80,,,,,,
2010/05,76.00,,,,,,
2010/04,78.68,,,,,,
2010/03,74.33,,,,,,
2010/02,73.16,,,,,,
2010/01,65.98,,,,,,
2009/12,65.39,,,,,,
2009/11,62.47,,,,,,
2009/10,60.56,,,,,,
2009/09,56.45,,,,,,
2009/08,53.00,,,,,,
2009/07,56.18,,,,,,
2009/06,51.44,,,,,,
2009/05,52.11,,,,,,
2009/04,49.79,,,,,,
2009/03,49.11,,,,,,
2009/02,48.42,,,,,,
2009/01,48.95,,,,,,
2008/12,49.13,,,,,,
2008/11,50.00,,,,,,
2008/10,52.22,,,,,,
2008/09,54.32,,,,,,
2008/08,55.84,,,,,,
2008/07,56.08,,,,,,
2008/06,60.23,,,,,,
2008/05,61.30,,,,,,
2008/04,68.48,,,,,,
2008/03,67.86,,,,,,
2008/02,63.09,,,,,,
2008/01,65.82,,,,,,
2007/12,62.58,,,,,,
2007/11,63.34,,,,,,
2007/10,66.03,,,,,,
2007/09,66.53,,,,,,
2007/08,66.09,,,,,,
台灣,國內生產總值年增%,,,,,,
2017/06,2.13,,,,,,
2017/03,2.66,,,,,,
2016/12,2.79,,,,,,
2016/09,2.12,,,,,,
2016/06,1.13,,,,,,
2016/03,-0.23,,,,,,
2015/12,-0.79,,,,,,
2015/09,-0.70,,,,,,
2015/06,0.66,,,,,,
2015/03,4.01,,,,,,
2014/12,3.56,,,,,,
2014/09,4.39,,,,,,
2014/06,4.31,,,,,,
2014/03,3.84,,,,,,
2013/12,3.31,,,,,,
2013/09,1.47,,,,,,
2013/06,2.51,,,,,,
2013/03,1.46,,,,,,
2012/12,4.63,,,,,,
2012/09,2.31,,,,,,
2012/06,0.42,,,,,,
2012/03,0.78,,,,,,
2011/12,0.68,,,,,,
2011/09,3.32,,,,,,
2011/06,4.28,,,,,,
2011/03,7.37,,,,,,
2010/12,6.52,,,,,,
2010/09,11.69,,,,,,
2010/06,12.40,,,,,,
2010/03,12.46,,,,,,
2009/12,9.04,,,,,,
2009/09,-1.24,,,,,,
2009/06,-6.07,,,,,,
2009/03,-7.88,,,,,,
2008/12,-7.65,,,,,,
2008/09,-1.32,,,,,,
2008/06,5.48,,,,,,
2008/03,7.72,,,,,,
2007/12,6.82,,,,,,
2007/09,7.65,,,,,,
台灣,經常帳盈餘(百萬美元),,,,,,
2017/06,"17,649.00",,,,,,
2017/03,"17,335.00",,,,,,
2016/12,"19,433.00",,,,,,
2016/09,"16,241.00",,,,,,
2016/06,"16,968.00",,,,,,
2016/03,"19,579.00",,,,,,
2015/12,"19,466.00",,,,,,
2015/09,"18,305.00",,,,,,
2015/06,"15,833.00",,,,,,
2015/03,"21,557.00",,,,,,
2014/12,"18,816.00",,,,,,
2014/09,"14,153.00",,,,,,
2014/06,"15,973.00",,,,,,
2014/03,"12,888.00",,,,,,
2013/12,"16,246.00",,,,,,
2013/09,"13,399.00",,,,,,
2013/06,"12,543.00",,,,,,
2013/03,"9,096.00",,,,,,
2012/12,"15,170.00",,,,,,
2012/09,"11,081.00",,,,,,
2012/06,"9,168.00",,,,,,
2012/03,"8,929.00",,,,,,
2011/12,"11,535.00",,,,,,
2011/09,"9,572.00",,,,,,
2011/06,"7,527.00",,,,,,
2011/03,"9,254.00",,,,,,
2010/12,"9,065.00",,,,,,
2010/09,"8,421.00",,,,,,
2010/06,"9,934.00",,,,,,
2010/03,"9,413.00",,,,,,
2009/12,"10,806.00",,,,,,
2009/09,"7,409.00",,,,,,
2009/06,"9,835.00",,,,,,
2009/03,"12,600.00",,,,,,
2008/12,"7,618.00",,,,,,
2008/09,"2,090.00",,,,,,
2008/06,"7,029.00",,,,,,
2008/03,"8,084.00",,,,,,
2007/12,"11,186.00",,,,,,
2007/09,"6,161.00",,,,,,
