墨西哥,消費者信心指數,,,
2017/08,88.49,,,
2017/07,88.66,,,
2017/06,87.20,,,
2017/05,86.82,,,
2017/04,83.85,,,
2017/03,81.01,,,
2017/02,75.73,,,
2017/01,68.49,,,
2016/12,85.73,,,
2016/11,84.43,,,
2016/10,84.97,,,
2016/09,84.15,,,
2016/08,86.50,,,
2016/07,88.87,,,
2016/06,93.42,,,
2016/05,90.91,,,
2016/04,88.90,,,
2016/03,89.21,,,
2016/02,88.70,,,
2016/01,92.53,,,
2015/12,92.99,,,
2015/11,92.50,,,
2015/10,91.26,,,
2015/09,90.58,,,
2015/08,90.43,,,
2015/07,92.17,,,
2015/06,94.74,,,
2015/05,91.95,,,
2015/04,91.32,,,
2015/03,93.06,,,
2015/02,90.26,,,
2015/01,91.07,,,
2014/12,93.55,,,
2014/11,92.88,,,
2014/10,90.56,,,
2014/09,91.84,,,
2014/08,89.71,,,
2014/07,90.52,,,
2014/06,90.97,,,
2014/05,90.71,,,
2014/04,90.26,,,
2014/03,88.79,,,
2014/02,84.52,,,
2014/01,84.46,,,
2013/12,89.66,,,
2013/11,88.67,,,
2013/10,91.16,,,
2013/09,94.10,,,
2013/08,97.44,,,
2013/07,97.96,,,
2013/06,93.26,,,
2013/05,95.15,,,
2013/04,95.73,,,
2013/03,95.38,,,
2013/02,95.45,,,
2013/01,100.01,,,
2012/12,98.99,,,
2012/11,94.16,,,
2012/10,94.93,,,
2012/09,94.04,,,
2012/08,97.55,,,
2012/07,98.85,,,
2012/06,95.54,,,
2012/05,96.27,,,
2012/04,97.23,,,
2012/03,93.40,,,
2012/02,93.64,,,
2012/01,95.40,,,
2011/12,90.84,,,
2011/11,89.55,,,
2011/10,90.60,,,
2011/09,92.39,,,
2011/08,93.36,,,
2011/07,95.47,,,
2011/06,93.02,,,
2011/05,89.29,,,
2011/04,89.74,,,
2011/03,91.69,,,
2011/02,92.25,,,
2011/01,92.29,,,
2010/12,91.20,,,
2010/11,88.50,,,
2010/10,89.16,,,
2010/09,91.64,,,
2010/08,88.71,,,
2010/07,87.38,,,
2010/06,87.46,,,
2010/05,84.59,,,
2010/04,82.54,,,
2010/03,81.81,,,
2010/02,80.63,,,
2010/01,82.12,,,
2009/12,80.13,,,
2009/11,78.16,,,
2009/10,76.96,,,
2009/09,81.90,,,
2009/08,81.55,,,
2009/07,85.42,,,
2009/06,81.04,,,
2009/05,78.28,,,
2009/04,82.12,,,
2009/03,79.43,,,
2009/02,78.91,,,
2009/01,81.94,,,
2008/12,84.06,,,
2008/11,83.86,,,
2008/10,81.98,,,
2008/09,88.63,,,
2008/08,89.61,,,
2008/07,88.37,,,
2008/06,90.68,,,
2008/05,94.21,,,
2008/04,97.79,,,
2008/03,102.66,,,
2008/02,101.04,,,
2008/01,103.47,,,
2007/12,105.61,,,
2007/11,99.97,,,
2007/10,101.42,,,
2007/09,105.33,,,
2007/08,108.04,,,
墨西哥,工業生產年增%,,,
2017/07,-1.59,,,
2017/06,-0.28,,,
2017/05,0.96,,,
2017/04,-3.88,,,
2017/03,3.62,,,
2017/02,-2.01,,,
2017/01,-0.03,,,
2016/12,-0.57,,,
2016/11,1.52,,,
2016/10,-1.09,,,
2016/09,-1.44,,,
2016/08,0.31,,,
2016/07,-1.44,,,
2016/06,0.55,,,
2016/05,0.39,,,
2016/04,1.58,,,
2016/03,-2.18,,,
2016/02,2.28,,,
2016/01,0.02,,,
2015/12,0.18,,,
2015/11,-0.07,,,
2015/10,0.16,,,
2015/09,1.68,,,
2015/08,1.15,,,
2015/07,0.88,,,
2015/06,1.32,,,
2015/05,-1.03,,,
2015/04,1.73,,,
2015/03,2.12,,,
2015/02,2.25,,,
2015/01,1.49,,,
2014/12,3.58,,,
2014/11,2.17,,,
2014/10,3.02,,,
2014/09,4.00,,,
2014/08,2.02,,,
2014/07,3.15,,,
2014/06,3.13,,,
2014/05,2.94,,,
2014/04,-0.14,,,
2014/03,4.86,,,
2014/02,1.68,,,
2014/01,1.89,,,
2013/12,0.87,,,
2013/11,-0.64,,,
2013/10,0.56,,,
2013/09,-1.38,,,
2013/08,-0.22,,,
2013/07,0.13,,,
2013/06,-2.32,,,
2013/05,-1.25,,,
2013/04,2.72,,,
2013/03,-3.72,,,
2013/02,-1.58,,,
2013/01,0.93,,,
2012/12,-0.66,,,
2012/11,2.22,,,
2012/10,1.84,,,
2012/09,1.75,,,
2012/08,2.63,,,
2012/07,3.61,,,
2012/06,3.51,,,
2012/05,4.32,,,
2012/04,3.02,,,
2012/03,2.75,,,
2012/02,6.05,,,
2012/01,3.71,,,
2011/12,3.08,,,
2011/11,4.40,,,
2011/10,3.57,,,
2011/09,2.43,,,
2011/08,2.76,,,
2011/07,2.07,,,
2011/06,3.08,,,
2011/05,3.82,,,
2011/04,2.03,,,
2011/03,3.42,,,
2011/02,3.56,,,
2011/01,3.52,,,
2010/12,3.93,,,
2010/11,3.70,,,
2010/10,3.64,,,
2010/09,5.95,,,
2010/08,6.88,,,
2010/07,3.66,,,
2010/06,5.43,,,
2010/05,5.54,,,
2010/04,4.53,,,
2010/03,4.95,,,
2010/02,1.96,,,
2010/01,1.39,,,
2009/12,-0.52,,,
2009/11,-1.21,,,
2009/10,-4.85,,,
2009/09,-5.30,,,
2009/08,-7.20,,,
2009/07,-6.35,,,
2009/06,-7.62,,,
2009/05,-8.67,,,
2009/04,-10.09,,,
2009/03,-4.79,,,
2009/02,-9.42,,,
2009/01,-8.18,,,
2008/12,-3.67,,,
2008/11,-2.98,,,
2008/10,-1.31,,,
2008/09,-1.47,,,
2008/08,-1.17,,,
2008/07,0.53,,,
2008/06,-0.13,,,
2008/05,-0.25,,,
2008/04,4.21,,,
2008/03,-4.45,,,
2008/02,3.75,,,
2008/01,1.91,,,
2007/12,2.81,,,
2007/11,0.53,,,
2007/10,3.05,,,
2007/09,0.42,,,
2007/08,-0.23,,,
墨西哥,失業率%,,,
2017/07,3.41,,,
2017/06,3.27,,,
2017/05,3.56,,,
2017/04,3.46,,,
2017/03,3.19,,,
2017/02,3.37,,,
2017/01,3.59,,,
2016/12,3.37,,,
2016/11,3.51,,,
2016/10,3.67,,,
2016/09,4.14,,,
2016/08,4.00,,,
2016/07,4.01,,,
2016/06,3.93,,,
2016/05,4.03,,,
2016/04,3.80,,,
2016/03,3.74,,,
2016/02,4.15,,,
2016/01,4.24,,,
2015/12,3.96,,,
2015/11,3.96,,,
2015/10,4.55,,,
2015/09,4.50,,,
2015/08,4.68,,,
2015/07,4.72,,,
2015/06,4.41,,,
2015/05,4.45,,,
2015/04,4.31,,,
2015/03,3.86,,,
2015/02,4.33,,,
2015/01,4.51,,,
2014/12,3.76,,,
2014/11,4.53,,,
2014/10,4.78,,,
2014/09,5.09,,,
2014/08,5.19,,,
2014/07,5.47,,,
2014/06,4.82,,,
2014/05,4.94,,,
2014/04,4.85,,,
2014/03,4.80,,,
2014/02,4.66,,,
2014/01,5.07,,,
2013/12,4.27,,,
2013/11,4.48,,,
2013/10,5.01,,,
2013/09,5.31,,,
2013/08,5.18,,,
2013/07,5.13,,,
2013/06,5.00,,,
2013/05,4.91,,,
2013/04,4.96,,,
2013/03,4.48,,,
2013/02,4.75,,,
2013/01,5.41,,,
2012/12,4.40,,,
2012/11,5.05,,,
2012/10,5.03,,,
2012/09,4.91,,,
2012/08,5.33,,,
2012/07,4.99,,,
2012/06,4.75,,,
2012/05,4.67,,,
2012/04,4.86,,,
2012/03,4.52,,,
2012/02,5.28,,,
2012/01,4.88,,,
2011/12,4.51,,,
2011/11,4.96,,,
2011/10,4.99,,,
2011/09,5.43,,,
2011/08,5.71,,,
2011/07,5.48,,,
2011/06,5.40,,,
2011/05,5.18,,,
2011/04,5.13,,,
2011/03,4.64,,,
2011/02,5.34,,,
2011/01,5.34,,,
2010/12,4.94,,,
2010/11,5.17,,,
2010/10,5.48,,,
2010/09,5.66,,,
2010/08,5.42,,,
2010/07,5.59,,,
2010/06,4.92,,,
2010/05,5.00,,,
2010/04,5.35,,,
2010/03,4.74,,,
2010/02,5.28,,,
2010/01,5.76,,,
2009/12,4.73,,,
2009/11,5.11,,,
2009/10,5.67,,,
2009/09,6.42,,,
2009/08,6.15,,,
2009/07,5.82,,,
2009/06,4.98,,,
2009/05,5.23,,,
2009/04,5.06,,,
2009/03,4.66,,,
2009/02,5.24,,,
2009/01,5.01,,,
2008/12,4.02,,,
2008/11,4.32,,,
2008/10,4.17,,,
2008/09,4.14,,,
2008/08,4.06,,,
2008/07,4.13,,,
2008/06,3.37,,,
2008/05,3.29,,,
2008/04,3.48,,,
2008/03,3.61,,,
2008/02,3.89,,,
2008/01,4.12,,,
2007/12,3.11,,,
2007/11,3.35,,,
2007/10,3.77,,,
2007/09,3.76,,,
2007/08,3.83,,,
墨西哥,貿易餘額(百萬美元),,,
2017/07,"-1,522.60",,,
2017/06,61.53,,,
2017/05,"-1,079.20",,,
2017/04,882.88,,,
2017/03,-63.22,,,
2017/02,759.20,,,
2017/01,"-3,470.98",,,
2016/12,-10.69,,,
2016/11,72.61,,,
2016/10,-897.55,,,
2016/09,"-1,527.01",,,
2016/08,"-1,883.91",,,
2016/07,"-1,824.86",,,
2016/06,-516.61,,,
2016/05,-442.11,,,
2016/04,"-2,108.64",,,
2016/03,86.44,,,
2016/02,-782.91,,,
2016/01,"-3,290.04",,,
2015/12,-745.89,,,
2015/11,"-1,612.67",,,
2015/10,"-1,498.84",,,
2015/09,"-1,474.54",,,
2015/08,"-2,820.73",,,
2015/07,"-2,376.73",,,
2015/06,-827.24,,,
2015/05,"-1,113.30",,,
2015/04,-68.69,,,
2015/03,512.50,,,
2015/02,606.52,,,
2015/01,"-3,262.97",,,
2014/12,229.73,,,
2014/11,"-1,212.99",,,
2014/10,-64.12,,,
2014/09,481.11,,,
2014/08,"-1,196.81",,,
2014/07,"-1,003.68",,,
2014/06,385.76,,,
2014/05,122.66,,,
2014/04,498.08,,,
2014/03,957.83,,,
2014/02,918.06,,,
2014/01,"-3,181.15",,,
2013/12,"1,619.98",,,
2013/11,309.43,,,
2013/10,-134.64,,,
2013/09,651.36,,,
2013/08,-224.90,,,
2013/07,"-1,399.04",,,
2013/06,920.11,,,
2013/05,-460.29,,,
2013/04,"-1,358.40",,,
2013/03,"1,710.25",,,
2013/02,25.44,,,
2013/01,"-2,854.42",,,
2012/12,"1,001.52",,,
2012/11,"-1,247.44",,,
2012/10,"-1,625.00",,,
2012/09,210.05,,,
2012/08,-981.81,,,
2012/07,-409.64,,,
2012/06,615.08,,,
2012/05,333.62,,,
2012/04,418.68,,,
2012/03,"1,472.52",,,
2012/02,498.18,,,
2012/01,-267.42,,,
2011/12,-0.58,,,
2011/11,-204.30,,,
2011/10,-530.04,,,
2011/09,"-1,869.90",,,
2011/08,-828.51,,,
2011/07,"-1,182.12",,,
2011/06,94.01,,,
2011/05,537.92,,,
2011/04,607.18,,,
2011/03,"1,455.98",,,
2011/02,310.09,,,
2011/01,142.45,,,
2010/12,-173.56,,,
2010/11,-84.69,,,
2010/10,-787.72,,,
2010/09,-523.01,,,
2010/08,-697.83,,,
2010/07,"-1,030.30",,,
2010/06,-336.41,,,
2010/05,172.48,,,
2010/04,80.51,,,
2010/03,393.23,,,
2010/02,422.81,,,
2010/01,-444.18,,,
2009/12,-160.53,,,
2009/11,-129.44,,,
2009/10,236.77,,,
2009/09,-879.04,,,
2009/08,-668.55,,,
2009/07,"-1,238.60",,,
2009/06,-168.26,,,
2009/05,449.70,,,
2009/04,168.54,,,
2009/03,-36.35,,,
2009/02,-548.52,,,
2009/01,"-1,707.14",,,
2008/12,"-2,068.86",,,
2008/11,"-2,959.26",,,
2008/10,"-3,292.31",,,
2008/09,"-2,935.27",,,
2008/08,"-2,277.48",,,
2008/07,"-1,214.62",,,
2008/06,235.61,,,
2008/05,-12.41,,,
2008/04,"-1,088.22",,,
2008/03,"1,238.64",,,
2008/02,"-1,122.93",,,
2008/01,"-1,763.55",,,
2007/12,-535.80,,,
2007/11,-820.99,,,
2007/10,"-1,560.86",,,
2007/09,-638.03,,,
2007/08,"-1,061.55",,,
墨西哥,製造業採購經理人指數,,,
2017/08,52.20,,,
2017/07,51.20,,,
2017/06,52.30,,,
2017/05,51.20,,,
2017/04,50.70,,,
2017/03,51.50,,,
2017/02,50.60,,,
2017/01,50.80,,,
2016/12,50.20,,,
2016/11,51.10,,,
2016/10,51.80,,,
2016/09,51.90,,,
2016/08,50.90,,,
2016/07,50.60,,,
2016/06,51.10,,,
2016/05,53.60,,,
2016/04,52.40,,,
2016/03,53.20,,,
2016/02,53.10,,,
2016/01,52.20,,,
2015/12,52.40,,,
2015/11,53.00,,,
2015/10,53.00,,,
2015/09,52.10,,,
2015/08,52.40,,,
2015/07,52.90,,,
2015/06,52.00,,,
2015/05,53.30,,,
2015/04,53.80,,,
2015/03,53.80,,,
2015/02,54.40,,,
2015/01,56.60,,,
2014/12,55.30,,,
2014/11,54.30,,,
2014/10,53.30,,,
2014/09,52.60,,,
2014/08,52.10,,,
2014/07,51.50,,,
2014/06,51.80,,,
2014/05,51.90,,,
2014/04,51.80,,,
2014/03,51.70,,,
2014/02,52.00,,,
2014/01,54.00,,,
2013/12,52.60,,,
2013/11,51.90,,,
2013/10,50.20,,,
2013/09,50.00,,,
2013/08,50.80,,,
2013/07,49.70,,,
2013/06,51.30,,,
2013/05,51.70,,,
2013/04,51.70,,,
2013/03,52.20,,,
2013/02,53.40,,,
2013/01,55.00,,,
2012/12,57.10,,,
2012/11,55.60,,,
2012/10,55.50,,,
2012/09,54.40,,,
2012/08,55.10,,,
2012/07,55.20,,,
2012/06,55.90,,,
2012/05,55.20,,,
2012/04,56.30,,,
2012/03,53.90,,,
墨西哥,國內生產總值年增%,,,
2017/06,1.77,,,
2017/03,2.78,,,
2016/12,2.34,,,
2016/09,2.04,,,
2016/06,2.60,,,
2016/03,2.16,,,
2015/12,2.48,,,
2015/09,2.82,,,
2015/06,2.50,,,
2015/03,2.82,,,
2014/12,2.71,,,
2014/09,2.31,,,
2014/06,1.76,,,
2014/03,2.29,,,
2013/12,1.13,,,
2013/09,1.57,,,
2013/06,1.76,,,
2013/03,1.00,,,
2012/12,3.56,,,
2012/09,3.23,,,
2012/06,4.50,,,
2012/03,4.84,,,
2011/12,4.32,,,
2011/09,4.17,,,
2011/06,3.23,,,
2011/03,4.45,,,
2010/12,4.59,,,
2010/09,5.44,,,
2010/06,6.74,,,
2010/03,3.70,,,
2009/12,-1.04,,,
2009/09,-4.57,,,
2009/06,-7.94,,,
2009/03,-5.23,,,
2008/12,-1.11,,,
2008/09,1.59,,,
2008/06,3.08,,,
2008/03,2.15,,,
2007/12,3.75,,,
2007/09,3.16,,,
墨西哥,經常帳盈餘(百萬美元),,,
2016/12,"-3,362.67",,,
2016/09,"-7,642.86",,,
2016/06,"-7,972.98",,,
2016/03,"-8,879.68",,,
2015/12,"-7,516.24",,,
2015/09,"-8,501.12",,,
2015/06,"-8,251.40",,,
2015/03,"-9,078.02",,,
2014/12,"-5,645.22",,,
2014/09,"-3,200.08",,,
2014/06,"-8,669.29",,,
2014/03,"-8,688.33",,,
2013/12,"-8,907.21",,,
2013/09,"-5,869.47",,,
2013/06,"-7,372.43",,,
2013/03,"-8,824.25",,,
2012/12,"-8,375.96",,,
2012/09,"-2,543.96",,,
2012/06,"-2,057.12",,,
2012/03,"-4,045.89",,,
2011/12,"-2,272.67",,,
2011/09,"-4,965.30",,,
2011/06,"-1,100.39",,,
2011/03,"-2,734.80",,,
2010/12,"-3,633.90",,,
2010/09,-810.51,,,
2010/06,-447.89,,,
2010/03,436.32,,,
2009/12,-104.96,,,
2009/09,"-3,608.47",,,
2009/06,583.03,,,
2009/03,"-1,933.71",,,
2008/12,"-6,122.58",,,
2008/09,"-4,651.83",,,
2008/06,"-2,598.10",,,
2008/03,"-3,961.47",,,
2007/12,"-1,657.70",,,
2007/09,-897.99,,,
