法國,消費者物價指數,,,
2017/08,101.49,,,
2017/07,100.97,,,
2017/06,101.32,,,
2017/05,101.31,,,
2017/04,101.26,,,
2017/03,101.17,,,
2017/02,100.53,,,
2017/01,100.41,,,
2016/12,100.65,,,
2016/11,100.35,,,
2016/10,100.37,,,
2016/09,100.34,,,
2016/08,100.58,,,
2016/07,100.25,,,
2016/06,100.63,,,
2016/05,100.50,,,
2016/04,100.09,,,
2016/03,100.02,,,
2016/02,99.33,,,
2016/01,99.08,,,
2015/12,100.04,,,
2015/11,99.82,,,
2015/10,100.01,,,
2015/09,99.95,,,
2015/08,100.35,,,
2015/07,100.03,,,
2015/06,100.44,,,
2015/05,100.52,,,
2015/04,100.28,,,
2015/03,100.17,,,
2015/02,99.52,,,
2015/01,98.86,,,
2014/12,99.86,,,
2014/11,99.78,,,
2014/10,99.95,,,
2014/09,99.92,,,
2014/08,100.30,,,
2014/07,99.86,,,
2014/06,100.18,,,
2014/05,100.22,,,
2014/04,100.20,,,
2014/03,100.24,,,
2014/02,99.79,,,
2014/01,99.24,,,
2013/12,99.80,,,
2013/11,99.46,,,
2013/10,99.50,,,
2013/09,99.63,,,
2013/08,99.86,,,
2013/07,99.40,,,
2013/06,99.70,,,
2013/05,99.54,,,
2013/04,99.48,,,
2013/03,99.63,,,
2013/02,98.88,,,
2013/01,98.60,,,
2012/12,99.10,,,
2012/11,98.79,,,
2012/10,98.94,,,
2012/09,98.76,,,
2012/08,99.00,,,
2012/07,98.35,,,
2012/06,98.78,,,
2012/05,98.75,,,
2012/04,98.80,,,
2012/03,98.67,,,
2012/02,97.86,,,
2012/01,97.46,,,
2011/12,97.80,,,
2011/11,97.41,,,
2011/10,97.14,,,
2011/09,96.91,,,
2011/08,96.98,,,
2011/07,96.48,,,
2011/06,96.91,,,
2011/05,96.83,,,
2011/04,96.78,,,
2011/03,96.45,,,
2011/02,95.67,,,
2011/01,95.22,,,
2010/12,95.45,,,
2010/11,95.02,,,
2010/10,94.91,,,
2010/09,94.79,,,
2010/08,94.86,,,
2010/07,94.64,,,
2010/06,94.91,,,
2010/05,94.92,,,
2010/04,94.81,,,
2010/03,94.57,,,
2010/02,94.11,,,
2010/01,93.59,,,
2009/12,93.80,,,
2009/11,93.55,,,
2009/10,93.42,,,
2009/09,93.33,,,
2009/08,93.56,,,
2009/07,93.08,,,
2009/06,93.50,,,
2009/05,93.38,,,
2009/04,93.24,,,
2009/03,93.09,,,
2009/02,92.92,,,
2009/01,92.57,,,
2008/12,92.95,,,
2008/11,93.18,,,
2008/10,93.62,,,
2008/09,93.67,,,
2008/08,93.73,,,
2008/07,93.76,,,
2008/06,93.96,,,
2008/05,93.62,,,
2008/04,93.12,,,
2008/03,92.81,,,
2008/02,92.12,,,
2008/01,91.92,,,
2007/12,92.03,,,
2007/11,91.69,,,
2007/10,91.19,,,
2007/09,90.96,,,
2007/08,90.86,,,
法國,工業生產指數SA,,,
2017/07,103.23,,,
2017/06,102.72,,,
2017/05,103.90,,,
2017/04,101.98,,,
2017/03,102.75,,,
2017/02,100.41,,,
2017/01,102.11,,,
2016/12,101.88,,,
2016/11,103.30,,,
2016/10,100.71,,,
2016/09,100.59,,,
2016/08,102.23,,,
2016/07,99.53,,,
2016/06,100.29,,,
2016/05,100.85,,,
2016/04,101.93,,,
2016/03,100.20,,,
2016/02,100.98,,,
2016/01,102.00,,,
2015/12,101.07,,,
2015/11,101.14,,,
2015/10,102.84,,,
2015/09,101.90,,,
2015/08,102.13,,,
2015/07,99.77,,,
2015/06,101.40,,,
2015/05,100.38,,,
2015/04,99.86,,,
2015/03,100.65,,,
2015/02,100.32,,,
2015/01,99.93,,,
2014/12,101.07,,,
2014/11,97.84,,,
2014/10,98.70,,,
2014/09,100.09,,,
2014/08,98.45,,,
2014/07,100.24,,,
2014/06,99.14,,,
2014/05,97.63,,,
2014/04,99.52,,,
2014/03,99.00,,,
2014/02,99.64,,,
2014/01,98.71,,,
2013/12,99.83,,,
2013/11,100.71,,,
2013/10,99.57,,,
2013/09,99.62,,,
2013/08,99.14,,,
2013/07,100.27,,,
2013/06,99.99,,,
2013/05,101.32,,,
2013/04,101.58,,,
2013/03,99.50,,,
2013/02,99.89,,,
2013/01,99.23,,,
2012/12,99.69,,,
2012/11,99.05,,,
2012/10,99.09,,,
2012/09,100.00,,,
2012/08,102.06,,,
2012/07,100.68,,,
2012/06,100.01,,,
2012/05,100.27,,,
2012/04,101.54,,,
2012/03,101.29,,,
2012/02,101.37,,,
2012/01,101.45,,,
2011/12,100.50,,,
2011/11,102.50,,,
2011/10,101.20,,,
2011/09,101.30,,,
2011/08,102.00,,,
2011/07,102.20,,,
2011/06,101.90,,,
2011/05,103.40,,,
2011/04,100.90,,,
2011/03,102.50,,,
2011/02,103.60,,,
2011/01,103.90,,,
2010/12,103.20,,,
2010/11,102.20,,,
2010/10,100.00,,,
2010/09,100.60,,,
2010/08,99.20,,,
2010/07,99.80,,,
2010/06,99.30,,,
2010/05,100.50,,,
2010/04,99.00,,,
2010/03,99.10,,,
2010/02,97.30,,,
2010/01,97.90,,,
2009/12,97.00,,,
2009/11,96.50,,,
2009/10,96.20,,,
2009/09,96.00,,,
2009/08,96.10,,,
2009/07,94.50,,,
2009/06,94.80,,,
2009/05,93.80,,,
2009/04,93.00,,,
2009/03,93.30,,,
2009/02,94.80,,,
2009/01,96.10,,,
2008/12,100.50,,,
2008/11,102.40,,,
2008/10,106.80,,,
2008/09,110.00,,,
2008/08,110.50,,,
2008/07,112.00,,,
2008/06,111.30,,,
2008/05,111.20,,,
2008/04,116.90,,,
2008/03,114.70,,,
2008/02,114.70,,,
2008/01,114.50,,,
2007/12,114.00,,,
2007/11,114.40,,,
2007/10,116.00,,,
2007/09,113.40,,,
2007/08,115.10,,,
法國,失業率%SA,,,
2017/07,9.80,,,
2017/06,9.60,,,
2017/05,9.60,,,
2017/04,9.50,,,
2017/03,9.60,,,
2017/02,9.60,,,
2017/01,9.70,,,
2016/12,9.90,,,
2016/11,10.00,,,
2016/10,10.00,,,
2016/09,9.90,,,
2016/08,10.00,,,
2016/07,9.90,,,
2016/06,10.00,,,
2016/05,10.10,,,
2016/04,10.10,,,
2016/03,10.20,,,
2016/02,10.20,,,
2016/01,10.20,,,
2015/12,10.20,,,
2015/11,10.20,,,
2015/10,10.30,,,
2015/09,10.30,,,
2015/08,10.50,,,
2015/07,10.50,,,
2015/06,10.50,,,
2015/05,10.60,,,
2015/04,10.50,,,
2015/03,10.40,,,
2015/02,10.30,,,
2015/01,10.30,,,
2014/12,10.40,,,
2014/11,10.40,,,
2014/10,10.40,,,
2014/09,10.40,,,
2014/08,10.30,,,
2014/07,10.30,,,
2014/06,10.20,,,
2014/05,10.20,,,
2014/04,10.20,,,
2014/03,10.30,,,
2014/02,10.30,,,
2014/01,10.20,,,
2013/12,10.20,,,
2013/11,10.10,,,
2013/10,10.10,,,
2013/09,10.30,,,
2013/08,10.30,,,
2013/07,10.40,,,
2013/06,10.40,,,
2013/05,10.40,,,
2013/04,10.40,,,
2013/03,10.40,,,
2013/02,10.30,,,
2013/01,10.30,,,
2012/12,10.10,,,
2012/11,10.10,,,
2012/10,10.00,,,
2012/09,9.90,,,
2012/08,9.80,,,
2012/07,9.70,,,
2012/06,9.70,,,
2012/05,9.70,,,
2012/04,9.70,,,
2012/03,9.60,,,
2012/02,9.50,,,
2012/01,9.50,,,
2011/12,9.40,,,
2011/11,9.40,,,
2011/10,9.30,,,
2011/09,9.20,,,
2011/08,9.20,,,
2011/07,9.20,,,
2011/06,9.10,,,
2011/05,9.10,,,
2011/04,9.10,,,
2011/03,9.10,,,
2011/02,9.10,,,
2011/01,9.20,,,
2010/12,9.20,,,
2010/11,9.20,,,
2010/10,9.20,,,
2010/09,9.20,,,
2010/08,9.20,,,
2010/07,9.20,,,
2010/06,9.30,,,
2010/05,9.30,,,
2010/04,9.30,,,
2010/03,9.30,,,
2010/02,9.30,,,
2010/01,9.40,,,
2009/12,9.50,,,
2009/11,9.50,,,
2009/10,9.50,,,
2009/09,9.30,,,
2009/08,9.20,,,
2009/07,9.10,,,
2009/06,9.10,,,
2009/05,9.10,,,
2009/04,9.00,,,
2009/03,8.80,,,
2009/02,8.60,,,
2009/01,8.30,,,
2008/12,8.00,,,
2008/11,7.80,,,
2008/10,7.60,,,
2008/09,7.50,,,
2008/08,7.50,,,
2008/07,7.40,,,
2008/06,7.30,,,
2008/05,7.30,,,
2008/04,7.30,,,
2008/03,7.30,,,
2008/02,7.20,,,
2008/01,7.30,,,
2007/12,7.40,,,
2007/11,7.50,,,
2007/10,7.60,,,
2007/09,7.80,,,
2007/08,8.00,,,
法國,零售銷售月增%SA,,,
2017/07,0.60,,,
2017/06,-0.40,,,
2017/05,0.60,,,
2017/04,-0.30,,,
2017/03,0.20,,,
2017/02,0.90,,,
2017/01,0.30,,,
2016/12,-0.30,,,
2016/11,0.20,,,
2016/10,1.40,,,
2016/09,0.20,,,
2016/08,0.30,,,
2016/07,-0.10,,,
2016/06,-0.10,,,
2016/05,0.50,,,
2016/04,-0.10,,,
2016/03,0.30,,,
2016/02,0.00,,,
2016/01,0.10,,,
2015/12,2.00,,,
2015/11,-0.90,,,
2015/10,-0.70,,,
2015/09,-0.30,,,
2015/08,1.30,,,
2015/07,-0.40,,,
2015/06,1.10,,,
2015/05,0.20,,,
2015/04,1.30,,,
2015/03,-0.40,,,
2015/02,-0.30,,,
2015/01,0.80,,,
2014/12,0.70,,,
2014/11,0.50,,,
2014/10,-0.50,,,
2014/09,0.20,,,
2014/08,1.80,,,
2014/07,-1.10,,,
2014/06,0.10,,,
2014/05,0.60,,,
2014/04,-0.30,,,
2014/03,0.90,,,
2014/02,0.00,,,
2014/01,0.30,,,
2013/12,-0.60,,,
2013/11,0.90,,,
2013/10,0.10,,,
2013/09,-0.70,,,
2013/08,0.30,,,
2013/07,1.50,,,
2013/06,-0.80,,,
2013/05,1.10,,,
2013/04,-0.70,,,
2013/03,0.50,,,
2013/02,0.50,,,
2013/01,0.10,,,
2012/12,0.20,,,
2012/11,-0.60,,,
2012/10,0.50,,,
2012/09,0.80,,,
2012/08,-1.40,,,
2012/07,0.50,,,
2012/06,1.00,,,
2012/05,0.90,,,
2012/04,-2.00,,,
2012/03,1.80,,,
2012/02,-0.50,,,
2012/01,0.80,,,
2011/12,-0.70,,,
2011/11,-0.50,,,
2011/10,0.20,,,
2011/09,0.40,,,
2011/08,1.00,,,
2011/07,-1.20,,,
2011/06,1.00,,,
2011/05,-2.40,,,
2011/04,1.60,,,
2011/03,-1.40,,,
2011/02,1.20,,,
2011/01,0.50,,,
2010/12,0.00,,,
2010/11,1.20,,,
2010/10,-0.80,,,
2010/09,0.40,,,
2010/08,-1.00,,,
2010/07,3.30,,,
2010/06,-2.30,,,
2010/05,0.90,,,
2010/04,0.80,,,
2010/03,0.80,,,
2010/02,0.70,,,
2010/01,-1.30,,,
2009/12,1.50,,,
2009/11,-1.00,,,
2009/10,1.00,,,
2009/09,0.30,,,
2009/08,0.70,,,
2009/07,-2.20,,,
2009/06,1.90,,,
2009/05,-0.60,,,
2009/04,1.00,,,
2009/03,0.10,,,
2009/02,-0.50,,,
2009/01,0.60,,,
2008/12,-1.30,,,
2008/11,0.40,,,
2008/10,-2.60,,,
2008/09,1.80,,,
2008/08,-0.40,,,
2008/07,0.30,,,
2008/06,-2.10,,,
2008/05,1.90,,,
2008/04,-0.30,,,
2008/03,-1.20,,,
2008/02,-0.10,,,
2008/01,0.10,,,
2007/12,0.60,,,
2007/11,-0.20,,,
2007/10,1.40,,,
2007/09,0.30,,,
2007/08,-0.70,,,
法國,零售銷售年增%,,,
2017/07,5.30,,,
2017/06,2.90,,,
2017/05,3.30,,,
2017/04,3.40,,,
2017/03,3.70,,,
2017/02,3.70,,,
2017/01,2.50,,,
2016/12,2.50,,,
2016/11,4.90,,,
2016/10,3.80,,,
2016/09,1.70,,,
2016/08,1.20,,,
2016/07,1.30,,,
2016/06,1.70,,,
2016/05,2.90,,,
2016/04,2.40,,,
2016/03,4.10,,,
2016/02,3.60,,,
2016/01,2.90,,,
2015/12,3.90,,,
2015/11,2.60,,,
2015/10,3.90,,,
2015/09,4.10,,,
2015/08,4.80,,,
2015/07,4.60,,,
2015/06,4.40,,,
2015/05,3.50,,,
2015/04,3.80,,,
2015/03,2.20,,,
2015/02,4.00,,,
2015/01,3.70,,,
2014/12,3.50,,,
2014/11,2.10,,,
2014/10,2.30,,,
2014/09,2.80,,,
2014/08,2.50,,,
2014/07,-0.70,,,
2014/06,3.10,,,
2014/05,2.10,,,
2014/04,2.60,,,
2014/03,2.10,,,
2014/02,1.80,,,
2014/01,2.20,,,
2013/12,2.30,,,
2013/11,3.00,,,
2013/10,1.10,,,
2013/09,1.60,,,
2013/08,4.00,,,
2013/07,1.00,,,
2013/06,0.70,,,
2013/05,2.80,,,
2013/04,2.10,,,
2013/03,1.00,,,
2013/02,2.40,,,
2013/01,1.40,,,
2012/12,2.10,,,
2012/11,1.40,,,
2012/10,2.10,,,
2012/09,1.70,,,
2012/08,2.60,,,
2012/07,2.00,,,
2012/06,2.90,,,
2012/05,2.40,,,
2012/04,-0.90,,,
2012/03,2.60,,,
2012/02,0.70,,,
2012/01,2.20,,,
2011/12,-0.60,,,
2011/11,0.40,,,
2011/10,1.80,,,
2011/09,0.90,,,
2011/08,1.70,,,
2011/07,-0.40,,,
2011/06,3.40,,,
2011/05,-0.20,,,
2011/04,3.30,,,
2011/03,2.90,,,
2011/02,5.30,,,
2011/01,4.10,,,
2010/12,2.50,,,
2010/11,4.40,,,
2010/10,1.80,,,
2010/09,3.90,,,
2010/08,4.10,,,
2010/07,6.00,,,
2010/06,-0.30,,,
2010/05,3.90,,,
2010/04,2.60,,,
2010/03,2.50,,,
2010/02,1.70,,,
2010/01,1.20,,,
2009/12,2.80,,,
2009/11,-0.10,,,
2009/10,1.10,,,
2009/09,-2.30,,,
2009/08,-0.40,,,
2009/07,-1.90,,,
2009/06,0.40,,,
2009/05,-3.40,,,
2009/04,-0.50,,,
2009/03,-2.50,,,
2009/02,-3.90,,,
2009/01,-2.70,,,
2008/12,-3.40,,,
2008/11,-1.80,,,
2008/10,-2.60,,,
2008/09,2.00,,,
2008/08,0.50,,,
2008/07,0.40,,,
2008/06,-0.30,,,
2008/05,3.90,,,
2008/04,1.30,,,
2008/03,-0.20,,,
2008/02,2.70,,,
2008/01,3.40,,,
2007/12,3.90,,,
2007/11,2.00,,,
2007/10,3.40,,,
2007/09,2.50,,,
2007/08,2.30,,,
法國,家庭消費調查SA(百萬歐元),,,
2017/07,"44,707.7076",,,
2017/06,"44,389.3089",,,
2017/05,"44,721.7753",,,
2017/04,"44,309.2072",,,
2017/03,"44,113.0851",,,
2017/02,"44,152.3944",,,
2017/01,"44,518.1709",,,
2016/12,"44,343.0421",,,
2016/11,"44,559.0418",,,
2016/10,"44,346.5444",,,
2016/09,"43,964.0277",,,
2016/08,"44,067.1801",,,
2016/07,"43,805.2611",,,
2016/06,"44,099.4738",,,
2016/05,"44,063.1027",,,
2016/04,"44,557.2482",,,
2016/03,"44,460.1676",,,
2016/02,"43,936.4531",,,
2016/01,"43,877.9710",,,
2015/12,"43,581.6407",,,
2015/11,"42,987.7408",,,
2015/10,"43,678.3067",,,
2015/09,"43,838.3412",,,
2015/08,"43,574.0918",,,
2015/07,"43,604.3752",,,
2015/06,"43,486.5932",,,
2015/05,"43,080.6483",,,
2015/04,"43,168.2460",,,
2015/03,"43,021.9887",,,
2015/02,"43,323.7572",,,
2015/01,"43,363.0373",,,
2014/12,"43,199.8097",,,
2014/11,"42,745.3553",,,
2014/10,"42,514.7244",,,
2014/09,"42,694.9326",,,
2014/08,"42,875.0384",,,
2014/07,"42,678.9935",,,
2014/06,"42,651.0785",,,
2014/05,"42,641.9638",,,
2014/04,"42,306.5559",,,
2014/03,"42,349.9551",,,
2014/02,"42,244.2034",,,
2014/01,"42,349.3709",,,
2013/12,"43,088.2334",,,
2013/11,"43,371.3781",,,
2013/10,"42,530.1433",,,
2013/09,"42,614.3699",,,
2013/08,"42,492.4869",,,
2013/07,"42,663.6478",,,
2013/06,"42,561.2318",,,
2013/05,"43,015.4789",,,
2013/04,"42,818.0143",,,
2013/03,"43,095.6484",,,
2013/02,"42,769.0252",,,
2013/01,"42,530.8199",,,
2012/12,"42,535.3218",,,
2012/11,"42,703.0964",,,
2012/10,"42,683.9044",,,
2012/09,"42,727.0761",,,
2012/08,"42,734.7550",,,
2012/07,"42,913.4063",,,
2012/06,"42,973.6479",,,
2012/05,"42,777.4132",,,
2012/04,"42,836.1344",,,
2012/03,"42,747.4115",,,
2012/02,"43,609.6518",,,
2012/01,"42,898.8230",,,
2011/12,"42,476.5933",,,
2011/11,"42,851.6455",,,
2011/10,"42,921.6464",,,
2011/09,"43,030.7593",,,
2011/08,"43,155.8352",,,
2011/07,"42,865.7223",,,
2011/06,"42,954.3190",,,
2011/05,"42,701.0980",,,
2011/04,"42,696.2033",,,
2011/03,"43,701.6335",,,
2011/02,"44,117.2328",,,
2011/01,"43,854.4329",,,
2010/12,"43,973.6535",,,
2010/11,"43,720.9806",,,
2010/10,"43,131.3641",,,
2010/09,"43,220.6669",,,
2010/08,"42,883.0303",,,
2010/07,"43,414.5670",,,
2010/06,"42,578.2955",,,
2010/05,"43,321.4496",,,
2010/04,"42,790.3805",,,
2010/03,"43,096.3643",,,
2010/02,"42,760.1016",,,
2010/01,"43,138.0049",,,
2009/12,"43,367.8686",,,
2009/11,"42,558.0298",,,
2009/10,"42,610.1647",,,
2009/09,"42,482.7980",,,
2009/08,"41,884.6706",,,
2009/07,"42,145.1487",,,
2009/06,"42,815.1455",,,
2009/05,"42,501.3422",,,
2009/04,"42,352.8882",,,
2009/03,"41,957.6914",,,
2009/02,"42,053.5689",,,
2009/01,"42,817.9901",,,
2008/12,"42,112.4106",,,
2008/11,"42,153.8788",,,
2008/10,"42,101.2319",,,
2008/09,"42,555.4179",,,
2008/08,"42,498.3745",,,
2008/07,"42,357.6130",,,
2008/06,"42,242.3740",,,
2008/05,"42,684.7050",,,
2008/04,"42,658.7577",,,
2008/03,"42,464.8052",,,
2008/02,"42,948.7927",,,
2008/01,"42,156.5085",,,
2007/12,"43,091.1101",,,
2007/11,"42,839.8215",,,
2007/10,"43,046.4735",,,
2007/09,"42,637.5229",,,
2007/08,"43,038.6327",,,
法國,貿易餘額(百萬歐元),,,
2017/07,"-7,111.00",,,
2017/06,"-5,101.00",,,
2017/05,"-6,356.00",,,
2017/04,"-5,981.00",,,
2017/03,"-6,138.00",,,
2017/02,"-7,205.00",,,
2017/01,"-11,275.00",,,
2016/12,"-3,536.00",,,
2016/11,"-6,835.00",,,
2016/10,"-6,594.00",,,
2016/09,"-6,221.00",,,
2016/08,"-6,320.00",,,
2016/07,"-5,152.00",,,
2016/06,"-4,240.00",,,
2016/05,"-4,587.00",,,
2016/04,"-5,261.00",,,
2016/03,"-5,161.00",,,
2016/02,"-5,741.00",,,
2016/01,"-5,877.00",,,
2015/12,"-4,858.00",,,
2015/11,"-5,723.00",,,
2015/10,"-5,491.00",,,
2015/09,"-5,643.00",,,
2015/08,"-5,052.00",,,
2015/07,"-5,094.00",,,
2015/06,"-4,341.00",,,
2015/05,"-6,555.00",,,
2015/04,"-4,390.00",,,
2015/03,"-6,042.00",,,
2015/02,"-3,971.00",,,
2015/01,"-5,971.00",,,
2014/12,"-5,045.00",,,
2014/11,"-5,148.00",,,
2014/10,"-6,014.00",,,
2014/09,"-6,640.00",,,
2014/08,"-6,645.00",,,
2014/07,"-6,943.00",,,
2014/06,"-6,911.00",,,
2014/05,"-6,771.00",,,
2014/04,"-5,970.00",,,
2014/03,"-5,875.00",,,
2014/02,"-5,361.00",,,
2014/01,"-8,814.00",,,
2013/12,"-6,604.00",,,
2013/11,"-6,581.00",,,
2013/10,"-6,292.00",,,
2013/09,"-7,720.00",,,
2013/08,"-5,934.00",,,
2013/07,"-6,662.00",,,
2013/06,"-5,728.00",,,
2013/05,"-7,530.00",,,
2013/04,"-5,608.00",,,
2013/03,"-4,891.00",,,
2013/02,"-7,273.00",,,
2013/01,"-8,182.00",,,
2012/12,"-6,625.00",,,
2012/11,"-6,249.00",,,
2012/10,"-6,923.00",,,
2012/09,"-6,407.00",,,
2012/08,"-7,502.00",,,
2012/07,"-5,806.00",,,
2012/06,"-6,711.00",,,
2012/05,"-7,631.00",,,
2012/04,"-8,019.00",,,
2012/03,"-6,306.00",,,
2012/02,"-8,118.00",,,
2012/01,"-8,148.00",,,
2011/12,"-5,817.00",,,
2011/11,"-7,308.00",,,
2011/10,"-7,833.00",,,
2011/09,"-8,176.00",,,
2011/08,"-7,285.00",,,
2011/07,"-6,898.00",,,
2011/06,"-7,396.00",,,
2011/05,"-8,624.00",,,
2011/04,"-7,681.00",,,
2011/03,"-7,864.00",,,
2011/02,"-7,842.00",,,
2011/01,"-8,935.00",,,
2010/12,"-7,374.00",,,
2010/11,"-7,207.00",,,
2010/10,"-4,370.00",,,
2010/09,"-6,237.00",,,
2010/08,"-7,402.00",,,
2010/07,"-3,577.00",,,
2010/06,"-4,963.00",,,
2010/05,"-7,402.00",,,
2010/04,"-4,867.00",,,
2010/03,"-5,902.00",,,
2010/02,"-4,377.00",,,
2010/01,"-5,525.00",,,
2009/12,"-6,088.00",,,
2009/11,"-7,224.00",,,
2009/10,"-4,626.00",,,
2009/09,"-4,268.00",,,
2009/08,"-5,591.00",,,
2009/07,"-2,015.00",,,
2009/06,"-5,412.00",,,
2009/05,"-4,225.00",,,
2009/04,"-5,066.00",,,
2009/03,"-4,855.00",,,
2009/02,"-4,895.00",,,
2009/01,"-6,216.00",,,
2008/12,"-3,846.00",,,
2008/11,"-6,671.00",,,
2008/10,"-7,301.00",,,
2008/09,"-6,746.00",,,
2008/08,"-7,279.00",,,
2008/07,"-5,715.00",,,
2008/06,"-6,983.00",,,
2008/05,"-6,802.00",,,
2008/04,"-5,321.00",,,
2008/03,"-5,489.00",,,
2008/02,"-4,196.00",,,
2008/01,"-6,296.00",,,
2007/12,"-5,478.00",,,
2007/11,"-7,006.00",,,
2007/10,"-4,856.00",,,
2007/09,"-4,808.00",,,
2007/08,"-5,346.00",,,
法國,出口貿易年增%,,,
2017/07,4.01,,,
2017/06,2.58,,,
2017/05,9.40,,,
2017/04,-3.43,,,
2017/03,9.60,,,
2017/02,-0.15,,,
2017/01,2.52,,,
2016/12,8.20,,,
2016/11,1.62,,,
2016/10,-7.65,,,
2016/09,-1.43,,,
2016/08,5.28,,,
2016/07,-8.46,,,
2016/06,-5.28,,,
2016/05,7.52,,,
2016/04,-3.63,,,
2016/03,-1.47,,,
2016/02,0.00,,,
2016/01,-1.27,,,
2015/12,4.11,,,
2015/11,4.97,,,
2015/10,-0.87,,,
2015/09,2.18,,,
2015/08,6.49,,,
2015/07,2.20,,,
2015/06,15.10,,,
2015/05,-0.10,,,
2015/04,6.39,,,
2015/03,7.55,,,
2015/02,4.07,,,
2015/01,-1.17,,,
2014/12,5.90,,,
2014/11,1.67,,,
2014/10,0.52,,,
2014/09,6.37,,,
2014/08,-5.26,,,
2014/07,-0.68,,,
2014/06,0.62,,,
2014/05,-1.48,,,
2014/04,-5.39,,,
2014/03,-1.85,,,
2014/02,0.84,,,
2014/01,-1.01,,,
2013/12,4.87,,,
2013/11,-6.67,,,
2013/10,-0.19,,,
2013/09,-1.19,,,
2013/08,-7.61,,,
2013/07,1.05,,,
2013/06,-5.00,,,
2013/05,-3.05,,,
2013/04,10.50,,,
2013/03,-4.99,,,
2013/02,-4.71,,,
2013/01,0.79,,,
2012/12,-7.02,,,
2012/11,1.79,,,
2012/10,11.84,,,
2012/09,-2.07,,,
2012/08,3.51,,,
2012/07,11.34,,,
2012/06,6.82,,,
2012/05,-2.64,,,
2012/04,1.12,,,
2012/03,0.23,,,
2012/02,7.24,,,
2012/01,8.69,,,
2011/12,3.68,,,
2011/11,5.99,,,
2011/10,5.23,,,
2011/09,7.15,,,
2011/08,13.81,,,
2011/07,-3.97,,,
2011/06,-3.13,,,
2011/05,24.42,,,
2011/04,4.37,,,
2011/03,14.25,,,
2011/02,13.15,,,
2011/01,16.18,,,
2010/12,17.09,,,
2010/11,22.79,,,
2010/10,7.01,,,
2010/09,12.37,,,
2010/08,21.80,,,
2010/07,12.67,,,
2010/06,24.20,,,
2010/05,9.68,,,
2010/04,18.33,,,
2010/03,14.66,,,
2010/02,6.97,,,
2010/01,3.84,,,
2009/12,-6.89,,,
2009/11,-9.12,,,
2009/10,-13.68,,,
2009/09,-17.05,,,
2009/08,-17.11,,,
2009/07,-16.56,,,
2009/06,-19.11,,,
2009/05,-17.90,,,
2009/04,-25.79,,,
2009/03,-13.71,,,
2009/02,-23.15,,,
2009/01,-24.59,,,
2008/12,-0.76,,,
2008/11,-9.41,,,
2008/10,-3.52,,,
2008/09,8.26,,,
2008/08,-4.14,,,
2008/07,9.08,,,
2008/06,1.68,,,
2008/05,0.06,,,
2008/04,14.16,,,
2008/03,-3.69,,,
2008/02,12.92,,,
2008/01,11.07,,,
2007/12,-0.02,,,
2007/11,-0.38,,,
2007/10,8.07,,,
2007/09,0.23,,,
2007/08,6.24,,,
法國,進口貿易年增%,,,
2017/07,8.33,,,
2017/06,4.29,,,
2017/05,12.64,,,
2017/04,-1.31,,,
2017/03,10.68,,,
2017/02,3.34,,,
2017/01,15.79,,,
2016/12,4.13,,,
2016/11,3.96,,,
2016/10,-4.27,,,
2016/09,0.07,,,
2016/08,8.21,,,
2016/07,-7.34,,,
2016/06,-5.00,,,
2016/05,1.47,,,
2016/04,-1.23,,,
2016/03,-3.18,,,
2016/02,4.38,,,
2016/01,-1.31,,,
2015/12,3.15,,,
2015/11,5.75,,,
2015/10,-1.90,,,
2015/09,-0.41,,,
2015/08,0.54,,,
2015/07,-2.28,,,
2015/06,6.76,,,
2015/05,-0.61,,,
2015/04,1.75,,,
2015/03,6.91,,,
2015/02,0.09,,,
2015/01,-7.49,,,
2014/12,1.09,,,
2014/11,-2.00,,,
2014/10,-0.15,,,
2014/09,2.72,,,
2014/08,-2.32,,,
2014/07,0.05,,,
2014/06,3.36,,,
2014/05,-3.02,,,
2014/04,-3.88,,,
2014/03,0.65,,,
2014/02,-3.86,,,
2014/01,0.65,,,
2013/12,3.99,,,
2013/11,-4.98,,,
2013/10,-1.51,,,
2013/09,2.11,,,
2013/08,-10.18,,,
2013/07,2.88,,,
2013/06,-6.44,,,
2013/05,-2.75,,,
2013/04,2.88,,,
2013/03,-7.36,,,
2013/02,-5.75,,,
2013/01,0.72,,,
2012/12,-4.02,,,
2012/11,-0.88,,,
2012/10,7.60,,,
2012/09,-5.66,,,
2012/08,3.41,,,
2012/07,6.74,,,
2012/06,4.06,,,
2012/05,-4.33,,,
2012/04,1.72,,,
2012/03,-3.06,,,
2012/02,6.54,,,
2012/01,4.86,,,
2011/12,-0.79,,,
2011/11,5.21,,,
2011/10,13.72,,,
2011/09,10.86,,,
2011/08,10.45,,,
2011/07,4.96,,,
2011/06,3.06,,,
2011/05,22.83,,,
2011/04,11.26,,,
2011/03,16.99,,,
2011/02,21.54,,,
2011/01,23.81,,,
2010/12,17.80,,,
2010/11,18.15,,,
2010/10,5.40,,,
2010/09,16.54,,,
2010/08,23.96,,,
2010/07,16.60,,,
2010/06,19.19,,,
2010/05,18.56,,,
2010/04,14.90,,,
2010/03,15.61,,,
2010/02,4.36,,,
2010/01,0.99,,,
2009/12,0.35,,,
2009/11,-6.08,,,
2009/10,-17.51,,,
2009/09,-20.12,,,
2009/08,-18.43,,,
2009/07,-22.94,,,
2009/06,-19.65,,,
2009/05,-21.33,,,
2009/04,-23.18,,,
2009/03,-13.42,,,
2009/02,-19.05,,,
2009/01,-21.04,,,
2008/12,-5.12,,,
2008/11,-8.64,,,
2008/10,2.60,,,
2008/09,12.26,,,
2008/08,2.44,,,
2008/07,9.54,,,
2008/06,8.25,,,
2008/05,3.50,,,
2008/04,14.93,,,
2008/03,4.01,,,
2008/02,10.94,,,
2008/01,12.58,,,
2007/12,4.78,,,
2007/11,7.24,,,
2007/10,11.16,,,
2007/09,6.78,,,
2007/08,3.57,,,
法國,消費者信心指數,,,
2017/08,103.30,,,
2017/07,104.30,,,
2017/06,107.77,,,
2017/05,102.21,,,
2017/04,100.27,,,
2017/03,100.38,,,
2017/02,100.50,,,
2017/01,100.34,,,
2016/12,99.14,,,
2016/11,98.66,,,
2016/10,97.83,,,
2016/09,97.08,,,
2016/08,96.69,,,
2016/07,95.61,,,
2016/06,96.56,,,
2016/05,98.32,,,
2016/04,94.26,,,
2016/03,94.57,,,
2016/02,95.51,,,
2016/01,97.33,,,
2015/12,96.11,,,
2015/11,96.30,,,
2015/10,95.99,,,
2015/09,97.24,,,
2015/08,93.63,,,
2015/07,92.96,,,
2015/06,93.47,,,
2015/05,93.54,,,
2015/04,94.94,,,
2015/03,93.93,,,
2015/02,92.38,,,
2015/01,89.76,,,
2014/12,90.24,,,
2014/11,87.39,,,
2014/10,85.94,,,
2014/09,86.27,,,
2014/08,86.48,,,
2014/07,86.74,,,
2014/06,85.52,,,
2014/05,85.57,,,
2014/04,85.42,,,
2014/03,87.97,,,
2014/02,85.02,,,
2014/01,86.11,,,
2013/12,84.94,,,
2013/11,84.52,,,
2013/10,86.59,,,
2013/09,86.11,,,
2013/08,85.23,,,
2013/07,82.97,,,
2013/06,79.73,,,
2013/05,80.21,,,
2013/04,84.05,,,
2013/03,83.22,,,
2013/02,85.90,,,
2013/01,85.45,,,
2012/12,86.14,,,
2012/11,84.42,,,
2012/10,84.35,,,
2012/09,85.07,,,
2012/08,86.67,,,
2012/07,88.70,,,
2012/06,91.53,,,
2012/05,92.40,,,
2012/04,89.83,,,
2012/03,88.83,,,
2012/02,84.73,,,
2012/01,83.86,,,
2011/12,83.13,,,
2011/11,84.30,,,
2011/10,86.88,,,
2011/09,84.67,,,
2011/08,85.88,,,
2011/07,88.84,,,
2011/06,86.37,,,
2011/05,86.95,,,
2011/04,86.06,,,
2011/03,87.04,,,
2011/02,89.56,,,
2011/01,89.43,,,
2010/12,90.58,,,
2010/11,93.55,,,
2010/10,91.26,,,
2010/09,90.40,,,
2010/08,89.43,,,
2010/07,87.10,,,
2010/06,87.17,,,
2010/05,88.23,,,
2010/04,89.19,,,
2010/03,90.98,,,
2010/02,91.64,,,
2010/01,94.44,,,
2009/12,93.80,,,
2009/11,93.41,,,
2009/10,90.51,,,
2009/09,90.31,,,
2009/08,88.97,,,
2009/07,89.03,,,
2009/06,89.52,,,
2009/05,86.72,,,
2009/04,86.39,,,
2009/03,84.60,,,
2009/02,84.19,,,
2009/01,84.57,,,
2008/12,83.35,,,
2008/11,83.53,,,
2008/10,82.10,,,
2008/09,84.06,,,
2008/08,82.32,,,
2008/07,81.81,,,
2008/06,81.98,,,
2008/05,85.36,,,
2008/04,88.44,,,
2008/03,88.50,,,
2008/02,89.91,,,
2008/01,89.76,,,
2007/12,93.74,,,
2007/11,94.26,,,
2007/10,99.46,,,
2007/09,100.70,,,
2007/08,103.14,,,
法國,綜合採購經理人指數,,,
2017/09,57.20,,,
2017/08,55.20,,,
2017/07,55.60,,,
2017/06,56.60,,,
2017/05,56.90,,,
2017/04,56.60,,,
2017/03,56.80,,,
2017/02,55.90,,,
2017/01,54.10,,,
2016/12,53.10,,,
2016/11,51.40,,,
2016/10,51.60,,,
2016/09,52.70,,,
2016/08,51.90,,,
2016/07,50.10,,,
2016/06,49.60,,,
2016/05,50.90,,,
2016/04,50.20,,,
2016/03,50.00,,,
2016/02,49.30,,,
2016/01,50.20,,,
2015/12,50.10,,,
2015/11,51.00,,,
2015/10,52.60,,,
2015/09,51.90,,,
2015/08,50.20,,,
2015/07,51.50,,,
2015/06,53.30,,,
2015/05,52.00,,,
2015/04,50.60,,,
2015/03,51.50,,,
2015/02,52.20,,,
2015/01,49.30,,,
2014/12,49.70,,,
2014/11,47.90,,,
2014/10,48.20,,,
2014/09,48.40,,,
2014/08,49.50,,,
2014/07,49.40,,,
2014/06,48.10,,,
2014/05,49.30,,,
2014/04,50.60,,,
2014/03,51.80,,,
2014/02,47.90,,,
2014/01,48.90,,,
2013/12,47.30,,,
2013/11,48.00,,,
2013/10,50.50,,,
2013/09,50.50,,,
2013/08,48.80,,,
2013/07,49.10,,,
2013/06,47.40,,,
2013/05,44.60,,,
2013/04,44.30,,,
2013/03,41.90,,,
2013/02,43.10,,,
2013/01,42.70,,,
2012/12,44.60,,,
2012/11,44.30,,,
2012/10,43.50,,,
2012/09,43.20,,,
2012/08,48.00,,,
2012/07,47.90,,,
2012/06,47.30,,,
2012/05,44.60,,,
2012/04,45.90,,,
2012/03,48.70,,,
2012/02,50.20,,,
2012/01,51.20,,,
2011/12,50.00,,,
2011/11,48.80,,,
2011/10,45.60,,,
2011/09,50.20,,,
2011/08,53.70,,,
2011/07,53.20,,,
2011/06,54.90,,,
2011/05,60.30,,,
2011/04,62.40,,,
2011/03,59.10,,,
2011/02,59.00,,,
2011/01,57.60,,,
2010/12,56.30,,,
2010/11,56.40,,,
2010/10,54.90,,,
2010/09,58.10,,,
2010/08,59.50,,,
2010/07,59.70,,,
2010/06,59.60,,,
2010/05,60.10,,,
2010/04,59.20,,,
2010/03,55.80,,,
2010/02,55.60,,,
2010/01,58.00,,,
2009/12,59.20,,,
2009/11,60.20,,,
2009/10,58.60,,,
法國,製造業採購經理人指數,,,
2017/09,56.00,,,
2017/08,55.80,,,
2017/07,54.90,,,
2017/06,54.80,,,
2017/05,53.80,,,
2017/04,55.10,,,
2017/03,53.30,,,
2017/02,52.20,,,
2017/01,53.60,,,
2016/12,53.50,,,
2016/11,51.70,,,
2016/10,51.80,,,
2016/09,49.70,,,
2016/08,48.30,,,
2016/07,48.60,,,
2016/06,48.30,,,
2016/05,48.40,,,
2016/04,48.00,,,
2016/03,49.60,,,
2016/02,50.20,,,
2016/01,50.00,,,
2015/12,51.40,,,
2015/11,50.60,,,
2015/10,50.60,,,
2015/09,50.60,,,
2015/08,48.30,,,
2015/07,49.60,,,
2015/06,50.70,,,
2015/05,49.40,,,
2015/04,48.00,,,
2015/03,48.80,,,
2015/02,47.60,,,
2015/01,49.20,,,
2014/12,47.50,,,
2014/11,48.40,,,
2014/10,48.50,,,
2014/09,48.80,,,
2014/08,46.90,,,
2014/07,47.80,,,
2014/06,48.20,,,
2014/05,49.60,,,
2014/04,51.20,,,
2014/03,52.10,,,
2014/02,49.70,,,
2014/01,49.30,,,
2013/12,47.00,,,
2013/11,48.40,,,
2013/10,49.10,,,
2013/09,49.80,,,
2013/08,49.70,,,
2013/07,49.70,,,
2013/06,48.40,,,
2013/05,46.40,,,
2013/04,44.40,,,
2013/03,44.00,,,
2013/02,43.90,,,
2013/01,42.90,,,
2012/12,44.60,,,
2012/11,44.50,,,
2012/10,43.70,,,
2012/09,42.70,,,
2012/08,46.00,,,
2012/07,43.40,,,
2012/06,45.20,,,
2012/05,44.70,,,
2012/04,46.90,,,
2012/03,46.70,,,
2012/02,50.00,,,
2012/01,48.50,,,
2011/12,48.90,,,
2011/11,47.30,,,
2011/10,48.50,,,
2011/09,48.20,,,
2011/08,49.10,,,
2011/07,50.50,,,
2011/06,52.50,,,
2011/05,54.90,,,
2011/04,57.50,,,
2011/03,55.40,,,
2011/02,55.70,,,
2011/01,54.90,,,
2010/12,57.20,,,
2010/11,57.90,,,
2010/10,55.20,,,
2010/09,56.00,,,
2010/08,55.10,,,
2010/07,53.90,,,
2010/06,54.80,,,
2010/05,56.10,,,
2010/04,56.60,,,
2010/03,56.50,,,
2010/02,54.90,,,
2010/01,55.40,,,
2009/12,54.70,,,
2009/11,54.60,,,
2009/10,55.90,,,
法國,服務業採購經理人指數,,,
2017/09,57.10,,,
2017/08,54.90,,,
2017/07,56.00,,,
2017/06,56.90,,,
2017/05,57.20,,,
2017/04,56.70,,,
2017/03,57.50,,,
2017/02,56.40,,,
2017/01,54.10,,,
2016/12,52.90,,,
2016/11,51.60,,,
2016/10,51.40,,,
2016/09,53.30,,,
2016/08,52.30,,,
2016/07,50.50,,,
2016/06,49.90,,,
2016/05,51.60,,,
2016/04,50.60,,,
2016/03,49.90,,,
2016/02,49.20,,,
2016/01,50.30,,,
2015/12,49.80,,,
2015/11,51.00,,,
2015/10,52.70,,,
2015/09,51.90,,,
2015/08,50.60,,,
2015/07,52.00,,,
2015/06,54.10,,,
2015/05,52.80,,,
2015/04,51.40,,,
2015/03,52.40,,,
2015/02,53.40,,,
2015/01,49.40,,,
2014/12,50.60,,,
2014/11,47.90,,,
2014/10,48.30,,,
2014/09,48.40,,,
2014/08,50.30,,,
2014/07,50.40,,,
2014/06,48.20,,,
2014/05,49.10,,,
2014/04,50.40,,,
2014/03,51.50,,,
2014/02,47.20,,,
2014/01,48.90,,,
2013/12,47.80,,,
2013/11,48.00,,,
2013/10,50.90,,,
2013/09,51.00,,,
2013/08,48.90,,,
2013/07,48.60,,,
2013/06,47.20,,,
2013/05,44.30,,,
2013/04,44.30,,,
2013/03,41.30,,,
2013/02,43.70,,,
2013/01,43.60,,,
2012/12,45.20,,,
2012/11,45.80,,,
2012/10,44.60,,,
2012/09,45.00,,,
2012/08,49.20,,,
2012/07,50.00,,,
2012/06,47.90,,,
2012/05,45.10,,,
2012/04,45.20,,,
2012/03,50.10,,,
2012/02,50.00,,,
2012/01,52.30,,,
2011/12,50.30,,,
2011/11,49.60,,,
2011/10,44.60,,,
2011/09,51.50,,,
2011/08,56.80,,,
2011/07,54.20,,,
2011/06,56.10,,,
2011/05,62.50,,,
2011/04,62.90,,,
2011/03,60.40,,,
2011/02,59.70,,,
2011/01,57.80,,,
2010/12,54.90,,,
2010/11,55.00,,,
2010/10,54.80,,,
2010/09,58.20,,,
2010/08,60.40,,,
2010/07,61.10,,,
2010/06,60.80,,,
2010/05,61.40,,,
2010/04,59.20,,,
2010/03,53.80,,,
2010/02,54.60,,,
2010/01,56.30,,,
2009/12,58.70,,,
2009/11,60.90,,,
2009/10,57.70,,,
法國,實質國內生產毛額季增%SA,,,
2017/06,0.54,,,
2017/03,0.53,,,
2016/12,0.52,,,
2016/09,0.19,,,
2016/06,-0.11,,,
2016/03,0.56,,,
2015/12,0.28,,,
2015/09,0.44,,,
2015/06,-0.06,,,
2015/03,0.38,,,
2014/12,0.03,,,
2014/09,0.57,,,
2014/06,0.17,,,
2014/03,0.07,,,
2013/12,0.43,,,
2013/09,0.01,,,
2013/06,0.68,,,
2013/03,0.01,,,
2012/12,-0.09,,,
2012/09,0.15,,,
2012/06,-0.11,,,
2012/03,0.07,,,
2011/12,0.10,,,
2011/09,0.23,,,
2011/06,-0.02,,,
2011/03,1.07,,,
2010/12,0.57,,,
2010/09,0.62,,,
2010/06,0.60,,,
2010/03,0.44,,,
2009/12,0.64,,,
2009/09,0.19,,,
2009/06,-0.18,,,
2009/03,-1.65,,,
2008/12,-1.45,,,
2008/09,-0.32,,,
2008/06,-0.46,,,
2008/03,0.38,,,
2007/12,0.27,,,
2007/09,0.37,,,
法國,實質國內生產毛額年增%SA,,,
2017/06,1.70,,,
2017/03,1.10,,,
2016/12,1.20,,,
2016/09,0.90,,,
2016/06,1.20,,,
2016/03,1.20,,,
2015/12,1.00,,,
2015/09,0.80,,,
2015/06,0.90,,,
2015/03,1.20,,,
2014/12,0.80,,,
2014/09,1.20,,,
2014/06,0.70,,,
2014/03,1.20,,,
2013/12,1.10,,,
2013/09,0.60,,,
2013/06,0.80,,,
2013/03,0.00,,,
2012/12,0.00,,,
2012/09,0.20,,,
2012/06,0.30,,,
2012/03,0.40,,,
2011/12,1.50,,,
2011/09,1.80,,,
2011/06,2.20,,,
2011/03,2.90,,,
2010/12,2.10,,,
2010/09,2.30,,,
2010/06,1.90,,,
2010/03,1.20,,,
2009/12,-0.80,,,
2009/09,-3.10,,,
2009/06,-3.50,,,
2009/03,-4.00,,,
2008/12,-2.00,,,
2008/09,-0.10,,,
2008/06,0.60,,,
2008/03,1.80,,,
2007/12,2.10,,,
2007/09,2.50,,,
