*澳大利亞,房屋融資總量SA(套)
Jul-17,"56,464.00"
Jun-17,"54,889.00"
May-17,"54,254.00"
Apr-17,"53,580.00"
Mar-17,"54,587.00"
Feb-17,"54,703.00"
Jan-17,"55,183.00"
Dec-16,"54,809.00"
Nov-16,"54,560.00"
Oct-16,"54,065.00"
Sep-16,"54,365.00"
Aug-16,"53,078.00"
Jul-16,"54,679.00"
Jun-16,"56,841.00"
May-16,"56,250.00"
Apr-16,"56,806.00"
Mar-16,"55,619.00"
Feb-16,"55,916.00"
Jan-16,"54,011.00"
Dec-15,"57,360.00"
Nov-15,"56,026.00"
Oct-15,"55,097.00"
Sep-15,"55,362.00"
Aug-15,"54,506.00"
Jul-15,"53,293.00"
Jun-15,"53,712.00"
May-15,"50,048.00"
Apr-15,"54,093.00"
Mar-15,"53,541.00"
Feb-15,"52,718.00"
Jan-15,"52,389.00"
Dec-14,"52,271.00"
Nov-14,"50,919.00"
Oct-14,"51,661.00"
Sep-14,"50,590.00"
Aug-14,"50,475.00"
Jul-14,"51,092.00"
Jun-14,"50,836.00"
May-14,"50,705.00"
Apr-14,"50,363.00"
Mar-14,"50,470.00"
Feb-14,"52,521.00"
Jan-14,"50,467.00"
Dec-13,"50,256.00"
Nov-13,"52,527.00"
Oct-13,"51,778.00"
Sep-13,"51,715.00"
Aug-13,"49,628.00"
Jul-13,"51,612.00"
Jun-13,"50,973.00"
May-13,"49,847.00"
Apr-13,"49,286.00"
Mar-13,"48,579.00"
Feb-13,"46,860.00"
Jan-13,"46,089.00"
Dec-12,"45,595.00"
Nov-12,"45,936.00"
Oct-12,"45,927.00"
Sep-12,"45,882.00"
Aug-12,"45,648.00"
Jul-12,"44,996.00"
Jun-12,"44,961.00"
May-12,"45,118.00"
Apr-12,"45,421.00"
Mar-12,"45,484.00"
Feb-12,"45,110.00"
Jan-12,"46,804.00"
Dec-11,"46,677.00"
Nov-11,"45,967.00"
Oct-11,"45,132.00"
Sep-11,"44,152.00"
Aug-11,"44,457.00"
Jul-11,"44,038.00"
Jun-11,"43,593.00"
May-11,"43,270.00"
Apr-11,"42,257.00"
Mar-11,"40,435.00"
Feb-11,"41,158.00"
Jan-11,"41,915.00"
Dec-10,"44,166.00"
Nov-10,"43,517.00"
Oct-10,"42,757.00"
Sep-10,"42,013.00"
Aug-10,"42,110.00"
Jul-10,"41,653.00"
Jun-10,"41,080.00"
May-10,"42,169.00"
Apr-10,"41,263.00"
Mar-10,"42,686.00"
Feb-10,"44,387.00"
Jan-10,"44,308.00"
Dec-09,"46,881.00"
Nov-09,"50,675.00"
Oct-09,"54,621.00"
Sep-09,"56,163.00"
Aug-09,"55,088.00"
Jul-09,"56,492.00"
Jun-09,"58,106.00"
May-09,"57,741.00"
Apr-09,"58,103.00"
Mar-09,"57,557.00"
Feb-09,"53,521.00"
Jan-09,"52,371.00"
Dec-08,"49,219.00"
Nov-08,"46,751.00"
Oct-08,"45,333.00"
Sep-08,"44,526.00"
Aug-08,"45,819.00"
Jul-08,"46,342.00"
Jun-08,"46,995.00"
May-08,"47,723.00"
Apr-08,"51,906.00"
Mar-08,"54,658.00"
Feb-08,"58,507.00"
Jan-08,"61,702.00"
Dec-07,"60,557.00"
Nov-07,"61,486.00"
Oct-07,"59,715.00"
Sep-07,"60,470.00"
Aug-07,"61,825.00"
*澳大利亞,房屋融資總值(百萬澳元)
Jul-17,"20,964,019.00"
Jun-17,"20,777,281.00"
May-17,"20,657,751.00"
Apr-17,"20,086,396.00"
Mar-17,"20,254,171.00"
Feb-17,"20,021,111.00"
Jan-17,"20,159,525.00"
Dec-16,"20,154,750.00"
Nov-16,"19,930,819.00"
Oct-16,"19,808,902.00"
Sep-16,"19,892,760.00"
Aug-16,"19,639,461.00"
Jul-16,"19,814,638.00"
Jun-16,"20,461,831.00"
May-16,"20,084,030.00"
Apr-16,"20,323,921.00"
Mar-16,"20,126,563.00"
Feb-16,"20,442,013.00"
Jan-16,"19,713,832.00"
Dec-15,"20,904,843.00"
Nov-15,"20,867,521.00"
Oct-15,"20,681,616.00"
Sep-15,"20,659,141.00"
Aug-15,"20,332,113.00"
Jul-15,"19,142,443.00"
Jun-15,"18,829,041.00"
May-15,"17,107,689.00"
Apr-15,"18,536,052.00"
Mar-15,"18,001,342.00"
Feb-15,"17,578,548.00"
Jan-15,"17,463,358.00"
Dec-14,"17,180,526.00"
Nov-14,"16,615,077.00"
Oct-14,"16,906,447.00"
Sep-14,"16,483,641.00"
Aug-14,"16,243,599.00"
Jul-14,"16,693,339.00"
Jun-14,"16,688,575.00"
May-14,"16,380,752.00"
Apr-14,"16,497,287.00"
Mar-14,"16,329,457.00"
Feb-14,"16,749,522.00"
Jan-14,"15,994,267.00"
Dec-13,"15,638,662.00"
Nov-13,"16,240,314.00"
Oct-13,"15,785,499.00"
Sep-13,"15,597,350.00"
Aug-13,"14,873,414.00"
Jul-13,"15,329,256.00"
Jun-13,"15,336,149.00"
May-13,"15,073,288.00"
Apr-13,"14,811,921.00"
Mar-13,"14,808,262.00"
Feb-13,"14,266,272.00"
Jan-13,"14,059,089.00"
Dec-12,"13,738,983.00"
Nov-12,"13,831,347.00"
Oct-12,"13,733,884.00"
Sep-12,"13,732,541.00"
Aug-12,"13,799,658.00"
Jul-12,"13,500,757.00"
Jun-12,"13,557,098.00"
May-12,"13,525,786.00"
Apr-12,"13,427,332.00"
Mar-12,"13,254,135.00"
Feb-12,"13,310,979.00"
Jan-12,"13,926,763.00"
Dec-11,"13,766,902.00"
Nov-11,"13,553,412.00"
Oct-11,"13,285,275.00"
Sep-11,"13,319,804.00"
Aug-11,"13,458,963.00"
Jul-11,"13,446,358.00"
Jun-11,"13,274,917.00"
May-11,"13,240,199.00"
Apr-11,"13,040,348.00"
Mar-11,"12,539,149.00"
Feb-11,"12,666,930.00"
Jan-11,"12,919,252.00"
Dec-10,"13,365,113.00"
Nov-10,"13,276,587.00"
Oct-10,"12,957,851.00"
Sep-10,"12,869,671.00"
Aug-10,"12,848,090.00"
Jul-10,"12,827,517.00"
Jun-10,"12,610,414.00"
May-10,"12,717,242.00"
Apr-10,"12,647,901.00"
Mar-10,"12,945,470.00"
Feb-10,"13,236,414.00"
Jan-10,"13,460,950.00"
Dec-09,"13,986,970.00"
Nov-09,"14,715,947.00"
Oct-09,"15,524,474.00"
Sep-09,"16,075,662.00"
Aug-09,"15,319,112.00"
Jul-09,"15,811,009.00"
Jun-09,"16,257,013.00"
May-09,"16,100,711.00"
Apr-09,"16,300,197.00"
Mar-09,"16,145,064.00"
Feb-09,"14,710,273.00"
Jan-09,"14,330,549.00"
Dec-08,"13,339,202.00"
Nov-08,"12,512,755.00"
Oct-08,"12,259,924.00"
Sep-08,"11,788,299.00"
Aug-08,"11,788,938.00"
Jul-08,"12,043,561.00"
Jun-08,"12,034,808.00"
May-08,"12,121,129.00"
Apr-08,"12,734,637.00"
Mar-08,"13,558,827.00"
Feb-08,"14,365,777.00"
Jan-08,"15,213,725.00"
Dec-07,"14,732,811.00"
Nov-07,"14,965,374.00"
Oct-07,"14,728,864.00"
Sep-07,"14,870,802.00"
Aug-07,"15,167,733.00"
*澳大利亞,就業人數增減SA(千)
Aug-17,54.21
Jul-17,29.27
Jun-17,21.74
May-17,40.89
Apr-17,50.07
Mar-17,54.6
Feb-17,11.11
Jan-17,6.43
Dec-16,16.3
Nov-16,46.22
Oct-16,14.44
Sep-16,-19.65
Aug-16,-24.25
Jul-16,30.59
Jun-16,13.6
May-16,4.6
Apr-16,2.86
Mar-16,8.91
Feb-16,17.38
Jan-16,-4.59
Dec-15,5.77
Nov-15,51.6
Oct-15,65.06
Sep-15,9.82
Aug-15,12.8
Jul-15,33.49
Jun-15,10.43
May-15,27.57
Apr-15,-2.56
Mar-15,14.62
Feb-15,68.45
Jan-15,5.69
Dec-14,47.94
Nov-14,14.28
Oct-14,-12.6
Sep-14,0.63
Aug-14,2.78
Jul-14,14.85
Jun-14,16.07
May-14,-21.58
Apr-14,5.98
Mar-14,43.33
Feb-14,28.39
Jan-14,34.93
Dec-13,-26.62
Nov-13,-18.32
Oct-13,-2.64
Sep-13,18.18
Aug-13,-1.13
Jul-13,-17.52
Jun-13,12.24
May-13,-7.91
Apr-13,31.23
Mar-13,-32.48
Feb-13,11.27
Jan-13,54.79
Dec-12,15.41
Nov-12,-4.65
Oct-12,2.06
Sep-12,31.22
Aug-12,10.18
Jul-12,6.04
Jun-12,-26.57
May-12,44.34
Apr-12,-13.77
Mar-12,63.69
Feb-12,-30.08
Jan-12,64.36
Dec-11,-18.84
Nov-11,1.83
Oct-11,1.86
Sep-11,30.02
Aug-11,10.01
Jul-11,3.26
Jun-11,32.24
May-11,-8.37
Apr-11,-34.42
Mar-11,41.31
Feb-11,-20.16
Jan-11,23.1
Dec-10,9.95
Nov-10,58.85
Oct-10,17.28
Sep-10,27.04
Aug-10,41.76
Jul-10,24.4
Jun-10,53.24
May-10,2.3
Apr-10,10.75
Mar-10,6.61
Feb-10,-12.91
Jan-10,43.71
Dec-09,39.31
Nov-09,30.38
Oct-09,10.46
Sep-09,20.92
Aug-09,-9.85
Jul-09,42.76
Jun-09,-18.29
May-09,-20.73
Apr-09,22.88
Mar-09,-33.07
Feb-09,14.63
Jan-09,-0.6
Dec-08,10.86
Nov-08,-7.71
Oct-08,10.14
Sep-08,-15.36
Aug-08,41.96
Jul-08,17.06
Jun-08,52.19
May-08,-27.1
Apr-08,37.95
Mar-08,21.56
Feb-08,31.09
Jan-08,34.84
Dec-07,23.84
Nov-07,54.66
Oct-07,-8.99
Sep-07,29.86
Aug-07,37.25
*澳大利亞,貿易餘額/SA(百萬澳元)
Jul-17,460
Jun-17,888
May-17,"1,951.00"
Apr-17,-114
Mar-17,"2,454.00"
Feb-17,"3,161.00"
Jan-17,"1,891.00"
Dec-16,"4,557.00"
Nov-16,"2,466.00"
Oct-16,-987
Sep-16,-364
Aug-16,"-1,576.00"
Jul-16,"-1,747.00"
Jun-16,"-2,879.00"
May-16,"-1,975.00"
Apr-16,"-1,638.00"
Mar-16,"-2,468.00"
Feb-16,"-3,183.00"
Jan-16,"-3,111.00"
Dec-15,"-4,135.00"
Nov-15,"-3,700.00"
Oct-15,"-3,779.00"
Sep-15,"-2,900.00"
Aug-15,"-2,911.00"
Jul-15,"-3,124.00"
Jun-15,"-3,465.00"
May-15,"-3,408.00"
Apr-15,"-4,070.00"
Mar-15,"-1,972.00"
Feb-15,"-1,581.00"
Jan-15,"-1,052.00"
Dec-14,-664
Nov-14,"-1,712.00"
Oct-14,"-1,295.00"
Sep-14,"-2,239.00"
Aug-14,"-1,109.00"
Jul-14,"-1,219.00"
Jun-14,"-1,108.00"
May-14,"-1,614.00"
Apr-14,-681
Mar-14,766
Feb-14,"1,539.00"
Jan-14,"1,115.00"
Dec-13,625
Nov-13,-937
Oct-13,-757
Sep-13,-361
Aug-13,-936
Jul-13,"-1,512.00"
Jun-13,-16
May-13,-502
Apr-13,-804
Mar-13,-503
Feb-13,"-1,034.00"
Jan-13,"-1,673.00"
Dec-12,"-1,412.00"
Nov-12,"-3,397.00"
Oct-12,"-2,411.00"
Sep-12,"-2,079.00"
Aug-12,"-2,113.00"
Jul-12,"-1,648.00"
Jun-12,-832
May-12,-776
Apr-12,-797
Mar-12,"-1,878.00"
Feb-12,-928
Jan-12,"-2,479.00"
Dec-11,688
Nov-11,-41
Oct-11,662
Sep-11,"1,364.00"
Aug-11,"1,968.00"
Jul-11,673
Jun-11,"1,175.00"
May-11,"1,862.00"
Apr-11,"1,396.00"
Mar-11,"1,775.00"
Feb-11,-326
Jan-11,919
Dec-10,962
Nov-10,"1,110.00"
Oct-10,"1,202.00"
Sep-10,"1,603.00"
Aug-10,"1,354.00"
Jul-10,"1,566.00"
Jun-10,"1,974.00"
May-10,"1,021.00"
Apr-10,573
Mar-10,"-2,050.00"
Feb-10,"-1,393.00"
Jan-10,"-1,337.00"
Dec-09,"-2,194.00"
Nov-09,"-2,311.00"
Oct-09,"-1,947.00"
Sep-09,"-1,789.00"
Aug-09,"-1,525.00"
Jul-09,"-1,556.00"
Jun-09,"-1,162.00"
May-09,"-1,088.00"
Apr-09,-330
Mar-09,"1,805.00"
Feb-09,"2,237.00"
Jan-09,289
Dec-08,-791
Nov-08,130
Oct-08,"2,238.00"
Sep-08,-1
Aug-08,-147
Jul-08,"-1,326.00"
Jun-08,"-1,860.00"
May-08,"-2,243.00"
Apr-08,"-1,599.00"
Mar-08,"-3,154.00"
Feb-08,"-3,936.00"
Jan-08,"-2,824.00"
Dec-07,"-2,846.00"
Nov-07,"-2,512.00"
Oct-07,"-3,377.00"
Sep-07,"-2,755.00"
Aug-07,"-2,138.00"
*澳大利亞,製造業表現指數(PMI)
Aug-17,59.8
Jul-17,56
Jun-17,55
May-17,54.8
Apr-17,59.2
Mar-17,57.5
Feb-17,59.3
Jan-17,51.2
Dec-16,55.4
Nov-16,54.2
Oct-16,50.9
Sep-16,49.8
Aug-16,46.9
Jul-16,56.4
Jun-16,51.8
May-16,51
Apr-16,53.4
Mar-16,58.1
Feb-16,53.5
Jan-16,51.5
Dec-15,51.9
Nov-15,52.5
Oct-15,50.2
Sep-15,52.1
Aug-15,51.7
Jul-15,50.4
Jun-15,44.2
May-15,52.3
Apr-15,48
Mar-15,46.3
Feb-15,45.4
Jan-15,49
Dec-14,46.9
Nov-14,50.1
Oct-14,49.4
Sep-14,46.5
Aug-14,47.3
Jul-14,50.7
Jun-14,48.9
May-14,49.2
Apr-14,44.8
Mar-14,47.9
Feb-14,48.6
Jan-14,46.7
Dec-13,47.6
Nov-13,47.7
Oct-13,53.2
Sep-13,51.7
Aug-13,46.4
Jul-13,42
Jun-13,49.6
May-13,43.8
Apr-13,36.7
Mar-13,44.4
Feb-13,45.6
Jan-13,40.2
Dec-12,44.3
Nov-12,44.3
Oct-12,45.2
Sep-12,44.1
Aug-12,45.3
Jul-12,40.3
Jun-12,47.2
May-12,42.4
Apr-12,43.9
Mar-12,49.5
Feb-12,51.3
Jan-12,51.6
Dec-11,50.2
Nov-11,47.8
Oct-11,47.4
Sep-11,42.3
Aug-11,43.3
Jul-11,43.4
Jun-11,52.9
May-11,47.7
Apr-11,48.4
Mar-11,47.9
Feb-11,51.1
Jan-11,46.7
Dec-10,46.3
Nov-10,47.6
Oct-10,49.4
Sep-10,47.3
Aug-10,51.7
Jul-10,54.4
Jun-10,52.9
May-10,56.3
Apr-10,59.8
Mar-10,50.5
Feb-10,53.8
Jan-10,51
Dec-09,48.5
Nov-09,51.2
Oct-09,51.7
Sep-09,52
Aug-09,51.7
Jul-09,44.5
Jun-09,38.4
May-09,37.5
Apr-09,30.1
Mar-09,33.2
Feb-09,31.7
Jan-09,36.6
Dec-08,33.7
Nov-08,32.7
Oct-08,40.4
Sep-08,47.2
Aug-08,47
Jul-08,46.9
Jun-08,47
May-08,51.2
Apr-08,52.7
Mar-08,52.3
Feb-08,51.6
Jan-08,47.2
Dec-07,56
Nov-07,53.8
Oct-07,52.9
Sep-07,51.1
Aug-07,52.5
*澳大利亞,服務業表現指數(PSI)
Aug-17,53
Jul-17,56.4
Jun-17,54.8
May-17,51.5
Apr-17,53
Mar-17,51.7
Feb-17,49
Jan-17,54.5
Dec-16,57.7
Nov-16,51.1
Oct-16,50.5
Sep-16,48.9
Aug-16,45
Jul-16,53.9
Jun-16,51.3
May-16,51.5
Apr-16,49.7
Mar-16,49.5
Feb-16,51.8
Jan-16,48.4
Dec-15,46.3
Nov-15,48.2
Oct-15,48.9
Sep-15,52.3
Aug-15,55.6
Jul-15,54.1
Jun-15,51.2
May-15,49.6
Apr-15,49.7
Mar-15,50.2
Feb-15,51.7
Jan-15,49.9
Dec-14,47.5
Nov-14,43.8
Oct-14,43.6
Sep-14,45.4
Aug-14,49.4
Jul-14,49.3
Jun-14,47.6
May-14,49.9
Apr-14,48.6
Mar-14,48.9
Feb-14,55.2
Jan-14,49.3
Dec-13,46.1
Nov-13,48.9
Oct-13,47.9
Sep-13,47.1
Aug-13,39
Jul-13,39.4
Jun-13,41.5
May-13,40.6
Apr-13,44.1
Mar-13,49.6
Feb-13,48.5
Jan-13,45.4
Dec-12,43.2
Nov-12,47.1
Oct-12,42.8
Sep-12,41.9
Aug-12,42.4
Jul-12,46.5
Jun-12,48.8
May-12,43.5
Apr-12,39.6
Mar-12,47
Feb-12,46.7
Jan-12,51.9
Dec-11,49
Nov-11,47.7
Oct-11,48.8
Sep-11,50.3
Aug-11,52.1
Jul-11,48.8
Jun-11,48.5
May-11,49.9
Apr-11,51.5
Mar-11,46.5
Feb-11,48.7
Jan-11,45.5
Dec-10,46.4
Nov-10,46.2
Oct-10,50.7
Sep-10,45.6
Aug-10,47.5
Jul-10,46.6
Jun-10,48.8
May-10,47.5
Apr-10,52.3
Mar-10,48.9
Feb-10,48.3
Jan-10,47.4
Dec-09,50
Nov-09,52.5
Oct-09,54.8
Sep-09,49.3
Aug-09,48
Jul-09,44.1
Jun-09,50.2
May-09,39.9
Apr-09,39.8
Mar-09,35.6
Feb-09,32.2
Jan-09,41
Dec-08,39.3
Nov-08,37.8
Oct-08,42.1
Sep-08,44.9
Aug-08,39.3
Jul-08,42.8
Jun-08,45.4
May-08,49.7
Apr-08,47.3
Mar-08,54.9
Feb-08,54.3
Jan-08,54.2
Dec-07,55.6
Nov-07,55.7
Oct-07,53.8
Sep-07,55
Aug-07,52.5
*澳大利亞,建築業表現指數(PCI)
Aug-17,55.3
Jul-17,60.5
Jun-17,56
May-17,56.7
Apr-17,51.9
Mar-17,51.2
Feb-17,53.1
Jan-17,47.7
Dec-16,47
Nov-16,46.6
Oct-16,45.9
Sep-16,51.4
Aug-16,46.6
Jul-16,51.6
Jun-16,53.2
May-16,46.7
Apr-16,50.8
Mar-16,45.2
Feb-16,46.1
Jan-16,46.3
Dec-15,46.8
Nov-15,50.7
Oct-15,52.1
Sep-15,51.9
Aug-15,53.8
Jul-15,47.1
Jun-15,46.4
May-15,47.8
Apr-15,47
Mar-15,50.1
Feb-15,43.9
Jan-15,45.9
Dec-14,44.4
Nov-14,45.4
Oct-14,53.4
Sep-14,59.1
Aug-14,55
Jul-14,52.6
Jun-14,51.8
May-14,46.7
Apr-14,45.9
Mar-14,46.2
Feb-14,44.2
Jan-14,48.2
Dec-13,50.8
Nov-13,55.2
Oct-13,54.4
Sep-13,47.6
Aug-13,43.7
Jul-13,44.1
Jun-13,39.5
May-13,35.3
Apr-13,35.2
Mar-13,39
Feb-13,45.6
Jan-13,36.2
Dec-12,38.8
Nov-12,37
Oct-12,35.8
Sep-12,30.9
Aug-12,32.2
Jul-12,32.6
Jun-12,34.8
May-12,34.7
Apr-12,34.9
Mar-12,36.2
Feb-12,35.6
Jan-12,39.8
Dec-11,41
Nov-11,39.6
Oct-11,34.7
Sep-11,30
Aug-11,32.1
Jul-11,36.1
Jun-11,35.8
May-11,39.6
Apr-11,37.9
Mar-11,39.4
Feb-11,44.6
Jan-11,40.2
Dec-10,43.8
Nov-10,42.2
Oct-10,44
Sep-10,40.8
Aug-10,43.2
Jul-10,43.3
Jun-10,46.4
May-10,53.2
Apr-10,55.8
Mar-10,51
Feb-10,52.8
Jan-10,57.7
Dec-09,49.3
Nov-09,47.6
Oct-09,50.9
Sep-09,50.8
Aug-09,42.4
Jul-09,39.5
Jun-09,42.6
May-09,46.9
Apr-09,36.5
Mar-09,30.3
Feb-09,29.5
Jan-09,34.1
Dec-08,30.9
Nov-08,32
Oct-08,36.4
Sep-08,31.8
Aug-08,43.1
Jul-08,41.6
Jun-08,40.3
May-08,36.9
Apr-08,42.6
Mar-08,47.7
Feb-08,53.9
Jan-08,58.6
Dec-07,59.4
Nov-07,52.4
Oct-07,57.9
Sep-07,55.6
Aug-07,47.1
*澳大利亞,國內生產毛額SA(百萬澳元)
Jun-17,"427,948.00"
Mar-17,"424,450.00"
Dec-16,"423,034.00"
Sep-16,"418,441.00"
Jun-16,"420,254.00"
Mar-16,"417,037.00"
Dec-15,"413,062.00"
Sep-15,"410,664.00"
Jun-15,"407,153.00"
Mar-15,"406,566.00"
Dec-14,"402,517.00"
Sep-14,"400,780.00"
Jun-14,"398,998.00"
Mar-14,"396,552.00"
Dec-13,"393,299.00"
Sep-13,"389,935.00"
Jun-13,"387,409.00"
Mar-13,"384,850.00"
Dec-12,"384,302.00"
Sep-12,"382,074.00"
Jun-12,"379,344.00"
Mar-12,"377,372.00"
Dec-11,"373,631.00"
Sep-11,"369,737.00"
Jun-11,"365,268.00"
Mar-11,"361,244.00"
Dec-10,"362,342.00"
Sep-10,"358,625.00"
Jun-10,"356,437.00"
Mar-10,"354,383.00"
Dec-09,"352,833.00"
Sep-09,"350,277.00"
Jun-09,"349,025.00"
Mar-09,"347,328.00"
Dec-08,"343,710.00"
Sep-08,"346,062.00"
Jun-08,"343,242.00"
Mar-08,"342,575.00"
Dec-07,"338,603.00"
Sep-07,"337,037.00"
*澳大利亞,經常帳(百萬澳元)
Jun-17,"-6,721.00"
Mar-17,"-4,911.00"
Dec-16,"-4,100.00"
Sep-16,"-13,737.00"
Jun-16,"-12,217.00"
Mar-16,"-14,358.00"
Dec-15,"-24,149.00"
Sep-15,"-23,429.00"
Jun-15,"-17,146.00"
Mar-15,"-13,147.00"
Dec-14,"-12,556.00"
Sep-14,"-15,774.00"
Jun-14,"-9,766.00"
Mar-14,"-8,784.00"
Dec-13,"-12,433.00"
Sep-13,"-16,475.00"
Jun-13,"-8,951.00"
Mar-13,"-11,933.00"
Dec-12,"-18,474.00"
Sep-12,"-17,637.00"
Jun-12,"-9,832.00"
Mar-12,"-16,153.00"
Dec-11,"-11,315.00"
Sep-11,"-10,353.00"
Jun-11,"-6,231.00"
Mar-11,"-12,218.00"
Dec-10,"-9,839.00"
Sep-10,"-9,287.00"
Jun-10,"-3,555.00"
Mar-10,"-17,158.00"
Dec-09,"-20,001.00"
Sep-09,"-16,584.00"
Jun-09,"-11,922.00"
Mar-09,"-5,674.00"
Dec-08,"-8,642.00"
Sep-08,"-12,440.00"
Jun-08,"-14,055.00"
Mar-08,"-19,492.00"
Dec-07,"-20,391.00"
Sep-07,"-18,933.00"
