*香港,零售銷售年增%
Jul-17,4
Jun-17,0.1
May-17,0.4
Apr-17,0.1
Mar-17,3
Feb-17,-5.8
Jan-17,-1
Dec-16,-2.9
Nov-16,-5.4
Oct-16,-2.9
Sep-16,-4
Aug-16,-10.5
Jul-16,-7.7
Jun-16,-8.9
May-16,-8.3
Apr-16,-7.5
Mar-16,-9.8
Feb-16,-20.6
Jan-16,-6.6
Dec-15,-8.5
Nov-15,-7.8
Oct-15,-3
Sep-15,-6.3
Aug-15,-5.3
Jul-15,-2.9
Jun-15,-0.4
May-15,-0.1
Apr-15,-2.1
Mar-15,-2.9
Feb-15,14.8
Jan-15,-14.5
Dec-14,-4
Nov-14,4.2
Oct-14,1.4
Sep-14,4.8
Aug-14,3.5
Jul-14,-3.2
Jun-14,-6.9
May-14,-3.9
Apr-14,-9.9
Mar-14,-1.5
Feb-14,-2.2
Jan-14,14.4
Dec-13,5.7
Nov-13,8.5
Oct-13,6.3
Sep-13,5
Aug-13,8.1
Jul-13,9.3
Jun-13,14.7
May-13,12.9
Apr-13,20.7
Mar-13,9.8
Feb-13,22.7
Jan-13,10.5
Dec-12,9.1
Nov-12,9.4
Oct-12,3.9
Sep-12,9.4
Aug-12,4.6
Jul-12,3.9
Jun-12,11
May-12,8.7
Apr-12,11.4
Mar-12,17.1
Feb-12,15.6
Jan-12,14.9
Dec-11,23.5
Nov-11,23.4
Oct-11,23
Sep-11,24
Aug-11,29
Jul-11,29.1
Jun-11,28.8
May-11,27.8
Apr-11,27.8
Mar-11,26.2
Feb-11,8.5
Jan-11,28.1
Dec-10,18.6
Nov-10,18.1
Oct-10,21.8
Sep-10,17.2
Aug-10,17.1
Jul-10,19.2
Jun-10,15.3
May-10,19.7
Apr-10,15.5
Mar-10,19
Feb-10,35.8
Jan-10,6.5
Dec-09,16.1
Nov-09,11.9
Oct-09,9.8
Sep-09,2.6
Aug-09,-0.1
Jul-09,-5.3
Jun-09,-4.7
May-09,-6.2
Apr-09,-4.3
Mar-09,-7.7
Feb-09,-12.7
Jan-09,7.4
Dec-08,1.1
Nov-08,1.3
Oct-08,0.4
Sep-08,7.1
Aug-08,10.3
Jul-08,13.6
Jun-08,11.6
May-08,13
Apr-08,18.5
Mar-08,20
Feb-08,9.6
Jan-08,23.3
Dec-07,16.8
Nov-07,19.6
Oct-07,16.8
Sep-07,15.8
Aug-07,15.2
*香港,外匯存底(百萬美元)
Jul-17,"413,336.00"
Jun-17,"408,018.00"
May-17,"402,660.00"
Apr-17,"400,070.00"
Mar-17,"395,548.00"
Feb-17,"390,497.00"
Jan-17,"391,510.00"
Dec-16,"386,294.00"
Nov-16,"385,084.00"
Oct-16,"383,145.00"
Sep-16,"362,465.00"
Aug-16,"362,660.00"
Jul-16,"363,011.00"
Jun-16,"360,652.00"
May-16,"360,303.00"
Apr-16,"360,776.00"
Mar-16,"361,987.00"
Feb-16,"359,954.00"
Jan-16,"356,994.00"
Dec-15,"358,773.00"
Nov-15,"355,767.00"
Oct-15,"357,058.00"
Sep-15,"345,790.00"
Aug-15,"334,437.00"
Jul-15,"339,899.00"
Jun-15,"340,768.00"
May-15,"344,861.00"
Apr-15,"343,213.00"
Mar-15,"332,211.00"
Feb-15,"332,524.00"
Jan-15,"324,821.00"
Dec-14,"328,516.00"
Nov-14,"327,930.00"
Oct-14,"325,494.00"
Sep-14,"325,762.00"
Aug-14,"331,323.00"
Jul-14,"325,035.00"
Jun-14,"320,934.00"
May-14,"320,225.00"
Apr-14,"317,731.00"
Mar-14,"316,867.00"
Feb-14,"315,919.00"
Jan-14,"312,228.00"
Dec-13,"311,209.00"
Nov-13,"308,659.00"
Oct-13,"309,586.00"
Sep-13,"303,503.00"
Aug-13,"303,902.00"
Jul-13,"299,896.00"
Jun-13,"303,582.00"
May-13,"305,713.00"
Apr-13,"306,504.00"
Mar-13,"303,796.00"
Feb-13,"304,774.00"
Jan-13,"304,674.00"
Dec-12,"317,362.00"
Nov-12,"305,207.00"
Oct-12,"301,733.00"
Sep-12,"301,223.00"
Aug-12,"298,187.00"
Jul-12,"296,272.00"
Jun-12,"294,957.00"
May-12,"291,879.00"
Apr-12,"295,594.00"
Mar-12,"294,604.00"
Feb-12,"294,701.00"
Jan-12,"292,804.00"
Dec-11,"285,402.00"
Nov-11,"282,534.00"
Oct-11,"281,711.00"
Sep-11,"277,609.00"
Aug-11,"279,569.00"
Jul-11,"278,819.00"
Jun-11,"277,206.00"
May-11,"275,875.00"
Apr-11,"276,922.00"
Mar-11,"272,617.00"
Feb-11,"272,688.00"
Jan-11,"273,176.00"
Dec-10,"268,743.00"
Nov-10,"266,054.00"
Oct-10,"267,056.00"
Sep-10,"266,100.00"
Aug-10,"261,401.00"
Jul-10,"260,724.00"
Jun-10,"256,796.00"
May-10,"256,179.00"
Apr-10,"259,248.00"
Mar-10,"258,826.00"
Feb-10,"258,231.00"
Jan-10,"257,057.00"
Dec-09,"255,842.00"
Nov-09,"256,258.00"
Oct-09,"240,082.00"
Sep-09,"226,896.00"
Aug-09,"223,275.00"
Jul-09,"218,101.00"
Jun-09,"206,996.00"
May-09,"205,122.00"
Apr-09,"193,410.00"
Mar-09,"186,287.00"
Feb-09,"177,093.00"
Jan-09,"181,713.00"
Dec-08,"182,527.00"
Nov-08,"165,909.00"
Oct-08,"154,849.00"
Sep-08,"160,557.00"
Aug-08,"158,084.00"
Jul-08,"157,667.00"
Jun-08,"157,609.00"
May-08,"158,985.00"
Apr-08,"159,871.00"
Mar-08,"160,775.00"
Feb-08,"160,231.00"
Jan-08,"159,906.00"
Dec-07,"152,693.00"
Nov-07,"150,375.00"
Oct-07,"142,240.00"
Sep-07,"140,850.00"
Aug-07,"138,312.00"
*香港,製造業採購經理人指數
Aug-17,49.7
Jul-17,51.3
Jun-17,51.1
May-17,50.5
Apr-17,51.1
Mar-17,49.9
Feb-17,49.6
Jan-17,49.9
Dec-16,50.3
Nov-16,49.5
Oct-16,48.2
Sep-16,49.3
Aug-16,49
Jul-16,47.2
Jun-16,45.4
May-16,47.2
Apr-16,45.3
Mar-16,45.5
Feb-16,46.4
Jan-16,46.1
Dec-15,46.4
Nov-15,46.6
Oct-15,46.6
Sep-15,45.7
Aug-15,44.4
Jul-15,48.2
Jun-15,49.2
May-15,47.6
Apr-15,48.6
Mar-15,49.6
Feb-15,50.7
Jan-15,49.4
Dec-14,50.3
Nov-14,48.8
Oct-14,47.7
Sep-14,49.8
Aug-14,49.6
Jul-14,50.4
Jun-14,50.1
May-14,49.1
Apr-14,49.7
Mar-14,49.9
Feb-14,53.3
Jan-14,52.7
Dec-13,51.2
Nov-13,52.1
Oct-13,50.1
Sep-13,50
Aug-13,49.7
Jul-13,49.7
Jun-13,48.7
May-13,49.8
Apr-13,49.9
Mar-13,50.5
Feb-13,51.2
Jan-13,52.5
Dec-12,51.7
Nov-12,52.2
Oct-12,50.5
Sep-12,49.6
Aug-12,50.5
Jul-12,50.3
Jun-12,49.8
May-12,49.4
Apr-12,50.3
Mar-12,52
Feb-12,52.8
Jan-12,51.9
Dec-11,49.7
Nov-11,48.7
Oct-11,49
Sep-11,45.9
Aug-11,47.8
Jul-11,51.4
Jun-11,50.3
May-11,52.2
Apr-11,52.9
Mar-11,54.9
Feb-11,53.7
Jan-11,55.2
Dec-10,55
Nov-10,53.5
Oct-10,53
Sep-10,52.8
Aug-10,52.3
Jul-10,51.3
Jun-10,52.6
May-10,53.2
Apr-10,55.3
Mar-10,54.9
Feb-10,54.6
Jan-10,55.8
Dec-09,55.2
Nov-09,55.9
Oct-09,54.6
