馬來西亞,外匯存底(百萬美元),,,,,,,
2017-07,"99,443.44",,,,,,,
2017-06,"98,922.29",,,,,,,
2017-05,"98,007.34",,,,,,,
2017-04,"96,104.99",,,,,,,
2017-03,"95,424.25",,,,,,,
2017-02,"95,041.58",,,,,,,
2017-01,"94,983.40",,,,,,,
2016-12,"94,524.56",,,,,,,
2016-11,"96,394.41",,,,,,,
2016-10,"97,798.32",,,,,,,
2016-09,"97,667.20",,,,,,,
2016-08,"97,541.46",,,,,,,
2016-07,"97,323.82",,,,,,,
2016-06,"97,152.74",,,,,,,
2016-05,"97,263.17",,,,,,,
2016-04,"96,986.30",,,,,,,
2016-03,"97,025.75",,,,,,,
2016-02,"95,631.33",,,,,,,
2016-01,"95,538.16",,,,,,,
2015-12,"95,289.62",,,,,,,
2015-11,"94,562.29",,,,,,,
2015-10,"94,026.50",,,,,,,
2015-09,"93,340.74",,,,,,,
2015-08,"94,733.84",,,,,,,
2015-07,"96,654.37",,,,,,,
2015-06,"105,478.01",,,,,,,
2015-05,"106,381.89",,,,,,,
2015-04,"105,847.77",,,,,,,
2015-03,"105,105.87",,,,,,,
2015-02,"110,475.77",,,,,,,
2015-01,"110,615.64",,,,,,,
2014-12,"115,937.44",,,,,,,
2014-11,"125,730.89",,,,,,,
2014-10,"128,123.20",,,,,,,
2014-09,"127,268.02",,,,,,,
2014-08,"132,042.74",,,,,,,
2014-07,"131,824.21",,,,,,,
2014-06,"131,864.69",,,,,,,
2014-05,"130,939.44",,,,,,,
2014-04,"131,167.01",,,,,,,
2014-03,"130,184.19",,,,,,,
2014-02,"130,604.01",,,,,,,
2014-01,"133,134.14",,,,,,,
2013-12,"134,910.79",,,,,,,
2013-11,"136,296.63",,,,,,,
2013-10,"137,054.26",,,,,,,
2013-09,"136,514.94",,,,,,,
2013-08,"134,772.74",,,,,,,
2013-07,"137,835.46",,,,,,,
2013-06,"136,092.83",,,,,,,
2013-05,"141,431.43",,,,,,,
2013-04,"140,311.60",,,,,,,
2013-03,"139,651.68",,,,,,,
2013-02,"140,306.95",,,,,,,
2013-01,"140,158.10",,,,,,,
2012-12,"139,724.00",,,,,,,
2012-11,"139,060.80",,,,,,,
2012-10,"138,306.40",,,,,,,
2012-09,"137,451.10",,,,,,,
2012-08,"134,949.10",,,,,,,
2012-07,"134,450.00",,,,,,,
2012-06,"134,219.40",,,,,,,
2012-05,"135,958.30",,,,,,,
2012-04,"135,915.70",,,,,,,
2012-03,"135,675.80",,,,,,,
2012-02,"134,729.10",,,,,,,
2012-01,"134,080.50",,,,,,,
2011-12,"133,641.50",,,,,,,
2011-11,"134,783.30",,,,,,,
2011-10,"134,784.00",,,,,,,
2011-09,"130,977.80",,,,,,,
2011-08,"136,275.00",,,,,,,
2011-07,"135,434.60",,,,,,,
2011-06,"134,326.00",,,,,,,
2011-05,"132,750.20",,,,,,,
2011-04,"129,986.80",,,,,,,
2011-03,"113,838.00",,,,,,,
2011-02,"109,777.60",,,,,,,
2011-01,"108,116.10",,,,,,,
2010-12,"106,498.30",,,,,,,
2010-11,"105,796.90",,,,,,,
2010-10,"105,319.30",,,,,,,
2010-09,"100,724.60",,,,,,,
2010-08,"95,247.80",,,,,,,
2010-07,"95,021.00",,,,,,,
2010-06,"94,772.50",,,,,,,
2010-05,"95,470.60",,,,,,,
2010-04,"95,983.50",,,,,,,
2010-03,"95,292.00",,,,,,,
2010-02,"96,844.60",,,,,,,
2010-01,"96,959.50",,,,,,,
2009-12,"96,677.70",,,,,,,
2009-11,"96,133.20",,,,,,,
2009-10,"96,038.90",,,,,,,
2009-09,"95,954.10",,,,,,,
2009-08,"93,326.20",,,,,,,
2009-07,"91,160.60",,,,,,,
2009-06,"91,540.00",,,,,,,
2009-05,"88,315.20",,,,,,,
2009-04,"87,729.70",,,,,,,
2009-03,"87,821.30",,,,,,,
2009-02,"91,114.60",,,,,,,
2009-01,"91,340.00",,,,,,,
2008-12,"91,536.00",,,,,,,
2008-11,"97,687.10",,,,,,,
2008-10,"100,214.00",,,,,,,
2008-09,"109,742.90",,,,,,,
2008-08,"122,580.80",,,,,,,
2008-07,"125,067.10",,,,,,,
2008-06,"125,782.30",,,,,,,
2008-05,"125,191.30",,,,,,,
2008-04,"124,086.50",,,,,,,
2008-03,"120,289.20",,,,,,,
2008-02,"116,280.50",,,,,,,
2008-01,"109,274.50",,,,,,,
2007-12,"101,344.80",,,,,,,
2007-11,"101,105.50",,,,,,,
2007-10,"99,637.20",,,,,,,
2007-09,"98,229.80",,,,,,,
2007-08,"96,788.00",,,,,,,
馬來西亞,失業率%,,,,,,,
2017-07,3.50,,,,,,,
2017-06,3.40,,,,,,,
2017-05,3.40,,,,,,,
2017-04,3.40,,,,,,,
2017-03,3.40,,,,,,,
2017-02,3.50,,,,,,,
2017-01,3.50,,,,,,,
2016-12,3.50,,,,,,,
2016-11,3.40,,,,,,,
2016-10,3.50,,,,,,,
2016-09,3.50,,,,,,,
2016-08,3.50,,,,,,,
2016-07,3.50,,,,,,,
2016-06,3.40,,,,,,,
2016-05,3.40,,,,,,,
2016-04,3.50,,,,,,,
2016-03,3.50,,,,,,,
2016-02,3.40,,,,,,,
2016-01,3.40,,,,,,,
2015-12,3.40,,,,,,,
2015-11,3.20,,,,,,,
2015-10,3.30,,,,,,,
2015-09,3.30,,,,,,,
2015-08,3.20,,,,,,,
2015-07,3.20,,,,,,,
2015-06,3.20,,,,,,,
2015-05,3.10,,,,,,,
2015-04,3.00,,,,,,,
2015-03,3.00,,,,,,,
2015-02,3.20,,,,,,,
2015-01,3.10,,,,,,,
2014-12,3.00,,,,,,,
2014-11,2.70,,,,,,,
2014-10,2.70,,,,,,,
2014-09,2.70,,,,,,,
2014-08,2.70,,,,,,,
2014-07,2.80,,,,,,,
2014-06,2.80,,,,,,,
2014-05,2.90,,,,,,,
2014-04,2.90,,,,,,,
2014-03,3.00,,,,,,,
2014-02,3.20,,,,,,,
2014-01,3.30,,,,,,,
2013-12,3.00,,,,,,,
2013-11,3.40,,,,,,,
2013-10,3.30,,,,,,,
2013-09,3.10,,,,,,,
2013-08,3.10,,,,,,,
2013-07,3.00,,,,,,,
2013-06,2.80,,,,,,,
2013-05,3.30,,,,,,,
2013-04,3.00,,,,,,,
2013-03,3.30,,,,,,,
2013-02,3.00,,,,,,,
2013-01,3.30,,,,,,,
2012-12,3.20,,,,,,,
2012-11,2.90,,,,,,,
2012-10,3.20,,,,,,,
2012-09,3.20,,,,,,,
2012-08,2.70,,,,,,,
2012-07,3.10,,,,,,,
2012-06,3.00,,,,,,,
2012-05,3.00,,,,,,,
2012-04,3.00,,,,,,,
2012-03,2.90,,,,,,,
2012-02,3.20,,,,,,,
2012-01,3.00,,,,,,,
2011-12,3.10,,,,,,,
2011-11,3.10,,,,,,,
2011-10,3.00,,,,,,,
2011-09,3.30,,,,,,,
2011-08,3.10,,,,,,,
2011-07,3.00,,,,,,,
2011-06,3.20,,,,,,,
2011-05,3.00,,,,,,,
2011-04,3.00,,,,,,,
2011-03,3.00,,,,,,,
2011-02,2.90,,,,,,,
2011-01,3.40,,,,,,,
2010-12,3.10,,,,,,,
2010-11,3.00,,,,,,,
2010-10,2.80,,,,,,,
2010-09,3.00,,,,,,,
2010-08,3.10,,,,,,,
2010-07,3.20,,,,,,,
2010-06,3.60,,,,,,,
2010-05,3.20,,,,,,,
2010-04,3.10,,,,,,,
2010-03,3.50,,,,,,,
2010-02,3.50,,,,,,,
2010-01,3.50,,,,,,,
2009-12,3.40,,,,,,,
2009-11,3.50,,,,,,,
2009-10,3.40,,,,,,,
2009-09,3.60,,,,,,,
2009-08,3.50,,,,,,,
2009-07,3.50,,,,,,,
2009-06,3.20,,,,,,,
2009-05,3.60,,,,,,,
2009-04,3.80,,,,,,,
2009-03,4.00,,,,,,,
2009-02,4.10,,,,,,,
2009-01,3.80,,,,,,,
2008-12,3.10,,,,,,,
2008-11,0.00,,,,,,,
2008-10,0.00,,,,,,,
2008-09,3.10,,,,,,,
2008-08,0.00,,,,,,,
2008-07,0.00,,,,,,,
2008-06,3.50,,,,,,,
2008-05,0.00,,,,,,,
2008-04,0.00,,,,,,,
2008-03,3.60,,,,,,,
馬來西亞,領先指數,,,,,,,
2017-06,117.90,,,,,,,
2017-05,118.60,,,,,,,
2017-04,117.20,,,,,,,
2017-03,118.80,,,,,,,
2017-02,117.50,,,,,,,
2017-01,118.30,,,,,,,
2016-12,117.10,,,,,,,
2016-11,116.10,,,,,,,
2016-10,116.40,,,,,,,
2016-09,117.00,,,,,,,
2016-08,117.30,,,,,,,
2016-07,115.00,,,,,,,
2016-06,117.20,,,,,,,
2016-05,116.40,,,,,,,
2016-04,115.70,,,,,,,
2016-03,116.80,,,,,,,
2016-02,116.20,,,,,,,
2016-01,117.60,,,,,,,
2015-12,117.50,,,,,,,
2015-11,117.80,,,,,,,
2015-10,117.80,,,,,,,
2015-09,117.80,,,,,,,
2015-08,117.00,,,,,,,
2015-07,117.90,,,,,,,
2015-06,117.70,,,,,,,
2015-05,117.30,,,,,,,
2015-04,118.70,,,,,,,
2015-03,119.20,,,,,,,
2015-02,117.50,,,,,,,
2015-01,118.70,,,,,,,
2014-12,118.90,,,,,,,
2014-11,118.70,,,,,,,
2014-10,117.50,,,,,,,
2014-09,118.30,,,,,,,
2014-08,117.70,,,,,,,
2014-07,117.30,,,,,,,
2014-06,116.70,,,,,,,
2014-05,117.20,,,,,,,
2014-04,117.40,,,,,,,
2014-03,115.90,,,,,,,
2014-02,116.30,,,,,,,
2014-01,116.10,,,,,,,
2013-12,115.70,,,,,,,
2013-11,116.20,,,,,,,
2013-10,117.00,,,,,,,
2013-09,116.90,,,,,,,
2013-08,115.80,,,,,,,
2013-07,115.30,,,,,,,
2013-06,115.80,,,,,,,
2013-05,116.20,,,,,,,
2013-04,116.20,,,,,,,
2013-03,116.00,,,,,,,
2013-02,114.90,,,,,,,
2013-01,113.70,,,,,,,
2012-12,113.50,,,,,,,
2012-11,112.10,,,,,,,
2012-10,112.80,,,,,,,
2012-09,112.30,,,,,,,
2012-08,112.90,,,,,,,
2012-07,113.30,,,,,,,
2012-06,113.30,,,,,,,
2012-05,112.90,,,,,,,
2012-04,112.70,,,,,,,
2012-03,112.90,,,,,,,
2012-02,114.10,,,,,,,
2012-01,112.30,,,,,,,
2011-12,111.80,,,,,,,
2011-11,111.70,,,,,,,
2011-10,112.30,,,,,,,
2011-09,111.00,,,,,,,
2011-08,110.60,,,,,,,
2011-07,110.80,,,,,,,
2011-06,110.70,,,,,,,
2011-05,110.30,,,,,,,
2011-04,110.30,,,,,,,
2011-03,110.20,,,,,,,
2011-02,110.50,,,,,,,
2011-01,111.50,,,,,,,
2010-12,111.50,,,,,,,
2010-11,110.70,,,,,,,
2010-10,110.00,,,,,,,
2010-09,109.90,,,,,,,
2010-08,109.80,,,,,,,
2010-07,108.80,,,,,,,
2010-06,108.90,,,,,,,
2010-05,108.80,,,,,,,
2010-04,108.70,,,,,,,
2010-03,110.10,,,,,,,
2010-02,108.30,,,,,,,
2010-01,107.70,,,,,,,
2009-12,108.00,,,,,,,
2009-11,108.10,,,,,,,
2009-10,106.50,,,,,,,
2009-09,105.90,,,,,,,
2009-08,106.30,,,,,,,
2009-07,106.50,,,,,,,
2009-06,105.50,,,,,,,
2009-05,104.50,,,,,,,
2009-04,104.30,,,,,,,
2009-03,102.20,,,,,,,
2009-02,101.80,,,,,,,
2009-01,101.30,,,,,,,
2008-12,101.30,,,,,,,
2008-11,103.20,,,,,,,
2008-10,104.10,,,,,,,
2008-09,105.40,,,,,,,
2008-08,104.40,,,,,,,
2008-07,105.40,,,,,,,
2008-06,106.20,,,,,,,
2008-05,107.40,,,,,,,
2008-04,107.90,,,,,,,
2008-03,107.70,,,,,,,
2008-02,108.00,,,,,,,
2008-01,108.60,,,,,,,
2007-12,108.60,,,,,,,
2007-11,107.30,,,,,,,
2007-10,108.00,,,,,,,
2007-09,106.60,,,,,,,
2007-08,106.60,,,,,,,
馬來西亞,經常帳盈餘(百萬馬幣),,,,,,,
2017-06,"9,642.00",,,,,,,
2017-03,"5,269.16",,,,,,,
2016-12,"12,471.16",,,,,,,
2016-09,"7,263.11",,,,,,,
2016-06,"3,075.38",,,,,,,
2016-03,"6,213.73",,,,,,,
2015-12,"10,818.82",,,,,,,
2015-09,"5,226.04",,,,,,,
2015-06,"8,192.89",,,,,,,
2015-03,"10,917.04",,,,,,,
2014-12,"6,186.03",,,,,,,
2014-09,"7,255.91",,,,,,,
2014-06,"15,291.69",,,,,,,
2014-03,"19,819.96",,,,,,,
2013-12,"13,584.71",,,,,,,
2013-09,"8,498.95",,,,,,,
2013-06,978.28,,,,,,,
2013-03,"12,423.39",,,,,,,
2012-12,"20,530.81",,,,,,,
2012-09,"7,233.16",,,,,,,
2012-06,"6,858.98",,,,,,,
2012-03,"15,554.21",,,,,,,
2011-12,"23,158.31",,,,,,,
2011-09,"27,450.41",,,,,,,
2011-06,"24,003.56",,,,,,,
2011-03,"24,711.41",,,,,,,
2010-12,"21,985.03",,,,,,,
2010-09,"18,899.38",,,,,,,
2010-06,"13,579.45",,,,,,,
2010-03,"28,352.05",,,,,,,
2009-12,"27,940.68",,,,,,,
2009-09,"27,089.62",,,,,,,
2009-06,"28,090.76",,,,,,,
2009-03,"27,605.90",,,,,,,
2008-12,"28,218.16",,,,,,,
2008-09,"39,982.13",,,,,,,
2008-06,"39,460.60",,,,,,,
2008-03,"23,752.60",,,,,,,
2007-12,"27,930.02",,,,,,,
2007-09,"29,956.07",,,,,,,
